<?xml version="1.0" encoding="utf-8"?>
<!DOCTYPE eagle SYSTEM "eagle.dtd">
<eagle version="9.6.2">
<drawing>
<settings>
<setting alwaysvectorfont="no"/>
<setting verticaltext="up"/>
</settings>
<grid distance="0.1" unitdist="inch" unit="inch" style="lines" multiple="1" display="no" altdistance="0.01" altunitdist="inch" altunit="inch"/>
<layers>
<layer number="1" name="Top" color="4" fill="1" visible="no" active="no"/>
<layer number="16" name="Bottom" color="1" fill="1" visible="no" active="no"/>
<layer number="17" name="Pads" color="2" fill="1" visible="no" active="no"/>
<layer number="18" name="Vias" color="2" fill="1" visible="no" active="no"/>
<layer number="19" name="Unrouted" color="6" fill="1" visible="no" active="no"/>
<layer number="20" name="Dimension" color="24" fill="1" visible="no" active="no"/>
<layer number="21" name="tPlace" color="16" fill="1" visible="no" active="no"/>
<layer number="22" name="bPlace" color="14" fill="1" visible="no" active="no"/>
<layer number="23" name="tOrigins" color="15" fill="1" visible="no" active="no"/>
<layer number="24" name="bOrigins" color="15" fill="1" visible="no" active="no"/>
<layer number="25" name="tNames" color="7" fill="1" visible="no" active="no"/>
<layer number="26" name="bNames" color="7" fill="1" visible="no" active="no"/>
<layer number="27" name="tValues" color="7" fill="1" visible="no" active="no"/>
<layer number="28" name="bValues" color="7" fill="1" visible="no" active="no"/>
<layer number="29" name="tStop" color="7" fill="3" visible="no" active="no"/>
<layer number="30" name="bStop" color="7" fill="6" visible="no" active="no"/>
<layer number="31" name="tCream" color="7" fill="4" visible="no" active="no"/>
<layer number="32" name="bCream" color="7" fill="5" visible="no" active="no"/>
<layer number="33" name="tFinish" color="6" fill="3" visible="no" active="no"/>
<layer number="34" name="bFinish" color="6" fill="6" visible="no" active="no"/>
<layer number="35" name="tGlue" color="7" fill="4" visible="no" active="no"/>
<layer number="36" name="bGlue" color="7" fill="5" visible="no" active="no"/>
<layer number="37" name="tTest" color="7" fill="1" visible="no" active="no"/>
<layer number="38" name="bTest" color="7" fill="1" visible="no" active="no"/>
<layer number="39" name="tKeepout" color="4" fill="11" visible="no" active="no"/>
<layer number="40" name="bKeepout" color="1" fill="11" visible="no" active="no"/>
<layer number="41" name="tRestrict" color="4" fill="10" visible="no" active="no"/>
<layer number="42" name="bRestrict" color="1" fill="10" visible="no" active="no"/>
<layer number="43" name="vRestrict" color="2" fill="10" visible="no" active="no"/>
<layer number="44" name="Drills" color="7" fill="1" visible="no" active="no"/>
<layer number="45" name="Holes" color="7" fill="1" visible="no" active="no"/>
<layer number="46" name="Milling" color="3" fill="1" visible="no" active="no"/>
<layer number="47" name="Measures" color="7" fill="1" visible="no" active="no"/>
<layer number="48" name="Document" color="7" fill="1" visible="no" active="no"/>
<layer number="49" name="Reference" color="13" fill="1" visible="no" active="no"/>
<layer number="50" name="dxf" color="7" fill="1" visible="no" active="no"/>
<layer number="51" name="tDocu" color="6" fill="1" visible="no" active="no"/>
<layer number="52" name="bDocu" color="7" fill="1" visible="no" active="no"/>
<layer number="53" name="tGND_GNDA" color="7" fill="9" visible="no" active="no"/>
<layer number="54" name="bGND_GNDA" color="1" fill="9" visible="no" active="no"/>
<layer number="56" name="wert" color="7" fill="1" visible="no" active="no"/>
<layer number="57" name="tCAD" color="7" fill="1" visible="no" active="no"/>
<layer number="58" name="bCAD" color="7" fill="1" visible="no" active="no"/>
<layer number="59" name="tCarbon" color="7" fill="1" visible="no" active="no"/>
<layer number="60" name="bCarbon" color="7" fill="1" visible="no" active="no"/>
<layer number="88" name="SimResults" color="9" fill="1" visible="yes" active="yes"/>
<layer number="89" name="SimProbes" color="9" fill="1" visible="yes" active="yes"/>
<layer number="90" name="Modules" color="5" fill="1" visible="yes" active="yes"/>
<layer number="91" name="Nets" color="2" fill="1" visible="yes" active="yes"/>
<layer number="92" name="Busses" color="1" fill="1" visible="yes" active="yes"/>
<layer number="93" name="Pins" color="2" fill="1" visible="no" active="yes"/>
<layer number="94" name="Symbols" color="4" fill="1" visible="yes" active="yes"/>
<layer number="95" name="Names" color="7" fill="1" visible="yes" active="yes"/>
<layer number="96" name="Values" color="7" fill="1" visible="yes" active="yes"/>
<layer number="97" name="Info" color="7" fill="1" visible="yes" active="yes"/>
<layer number="98" name="Guide" color="6" fill="1" visible="yes" active="yes"/>
<layer number="99" name="SpiceOrder" color="7" fill="1" visible="yes" active="yes"/>
<layer number="100" name="Muster" color="7" fill="1" visible="no" active="no"/>
<layer number="101" name="Patch_Top" color="12" fill="4" visible="no" active="no"/>
<layer number="102" name="Vscore" color="7" fill="1" visible="no" active="no"/>
<layer number="103" name="tMap" color="7" fill="1" visible="no" active="no"/>
<layer number="104" name="Name" color="16" fill="1" visible="no" active="no"/>
<layer number="105" name="tPlate" color="7" fill="1" visible="no" active="no"/>
<layer number="106" name="bPlate" color="7" fill="1" visible="no" active="no"/>
<layer number="107" name="Crop" color="7" fill="1" visible="no" active="no"/>
<layer number="108" name="tplace-old" color="10" fill="1" visible="no" active="no"/>
<layer number="109" name="ref-old" color="11" fill="1" visible="no" active="no"/>
<layer number="110" name="fp0" color="7" fill="1" visible="no" active="no"/>
<layer number="111" name="LPC17xx" color="7" fill="1" visible="no" active="no"/>
<layer number="112" name="tSilk" color="7" fill="1" visible="no" active="no"/>
<layer number="113" name="IDFDebug" color="4" fill="1" visible="no" active="no"/>
<layer number="114" name="Badge_Outline" color="7" fill="1" visible="no" active="no"/>
<layer number="115" name="ReferenceISLANDS" color="7" fill="1" visible="no" active="no"/>
<layer number="116" name="Patch_BOT" color="9" fill="4" visible="no" active="no"/>
<layer number="117" name="PM_Ref" color="7" fill="1" visible="no" active="no"/>
<layer number="118" name="Rect_Pads" color="7" fill="1" visible="no" active="no"/>
<layer number="119" name="PF_Ref" color="7" fill="1" visible="no" active="no"/>
<layer number="120" name="WFL_Ref" color="7" fill="1" visible="no" active="no"/>
<layer number="121" name="_tsilk" color="7" fill="1" visible="no" active="no"/>
<layer number="122" name="_bsilk" color="7" fill="1" visible="no" active="no"/>
<layer number="123" name="tTestmark" color="7" fill="1" visible="no" active="no"/>
<layer number="124" name="bTestmark" color="7" fill="1" visible="no" active="no"/>
<layer number="125" name="_tNames" color="7" fill="1" visible="no" active="no"/>
<layer number="126" name="_bNames" color="7" fill="1" visible="no" active="no"/>
<layer number="127" name="_tValues" color="7" fill="1" visible="no" active="no"/>
<layer number="128" name="_bValues" color="7" fill="1" visible="no" active="no"/>
<layer number="129" name="Mask" color="7" fill="1" visible="no" active="no"/>
<layer number="130" name="SMDSTROOK" color="7" fill="1" visible="no" active="no"/>
<layer number="131" name="tAdjust" color="7" fill="1" visible="no" active="no"/>
<layer number="132" name="bAdjust" color="7" fill="1" visible="no" active="no"/>
<layer number="133" name="bottom_silk" color="7" fill="1" visible="no" active="no"/>
<layer number="134" name="silk_top" color="7" fill="1" visible="no" active="no"/>
<layer number="135" name="silk_bottom" color="7" fill="1" visible="no" active="no"/>
<layer number="136" name="silktop" color="7" fill="1" visible="no" active="no"/>
<layer number="137" name="silkbottom" color="7" fill="1" visible="no" active="no"/>
<layer number="138" name="EEE" color="7" fill="1" visible="no" active="no"/>
<layer number="139" name="_tKeepout" color="7" fill="1" visible="no" active="no"/>
<layer number="140" name="mbKeepout" color="7" fill="1" visible="no" active="no"/>
<layer number="141" name="ASSEMBLY_TOP" color="7" fill="1" visible="no" active="no"/>
<layer number="142" name="mbRestrict" color="7" fill="1" visible="no" active="no"/>
<layer number="143" name="PLACE_BOUND_TOP" color="7" fill="1" visible="no" active="no"/>
<layer number="144" name="Drill_legend" color="7" fill="1" visible="no" active="no"/>
<layer number="145" name="DrillLegend_01-16" color="7" fill="1" visible="no" active="no"/>
<layer number="146" name="DrillLegend_01-20" color="7" fill="1" visible="no" active="no"/>
<layer number="147" name="PIN_NUMBER" color="7" fill="1" visible="no" active="no"/>
<layer number="148" name="DrillLegend_01-20" color="7" fill="1" visible="no" active="no"/>
<layer number="149" name="DrillLegend_02-15" color="7" fill="1" visible="no" active="no"/>
<layer number="150" name="Notes" color="7" fill="1" visible="no" active="no"/>
<layer number="151" name="HeatSink" color="7" fill="1" visible="no" active="no"/>
<layer number="152" name="_bDocu" color="7" fill="1" visible="no" active="no"/>
<layer number="153" name="FabDoc1" color="7" fill="1" visible="no" active="no"/>
<layer number="154" name="FabDoc2" color="7" fill="1" visible="no" active="no"/>
<layer number="155" name="FabDoc3" color="7" fill="1" visible="no" active="no"/>
<layer number="166" name="AntennaArea" color="7" fill="1" visible="no" active="no"/>
<layer number="168" name="4mmHeightArea" color="7" fill="1" visible="no" active="no"/>
<layer number="191" name="mNets" color="7" fill="1" visible="no" active="no"/>
<layer number="192" name="mBusses" color="7" fill="1" visible="no" active="no"/>
<layer number="193" name="mPins" color="7" fill="1" visible="no" active="no"/>
<layer number="194" name="mSymbols" color="7" fill="1" visible="no" active="no"/>
<layer number="195" name="mNames" color="7" fill="1" visible="no" active="no"/>
<layer number="196" name="mValues" color="7" fill="1" visible="no" active="no"/>
<layer number="199" name="Contour" color="7" fill="1" visible="no" active="no"/>
<layer number="200" name="200bmp" color="1" fill="10" visible="no" active="no"/>
<layer number="201" name="201bmp" color="2" fill="10" visible="no" active="no"/>
<layer number="202" name="202bmp" color="3" fill="10" visible="no" active="no"/>
<layer number="203" name="203bmp" color="4" fill="10" visible="no" active="no"/>
<layer number="204" name="204bmp" color="5" fill="10" visible="no" active="no"/>
<layer number="205" name="205bmp" color="6" fill="10" visible="no" active="no"/>
<layer number="206" name="206bmp" color="7" fill="10" visible="no" active="no"/>
<layer number="207" name="207bmp" color="8" fill="10" visible="no" active="no"/>
<layer number="208" name="208bmp" color="9" fill="10" visible="no" active="no"/>
<layer number="209" name="209bmp" color="7" fill="1" visible="no" active="no"/>
<layer number="210" name="210bmp" color="7" fill="1" visible="no" active="no"/>
<layer number="211" name="211bmp" color="7" fill="1" visible="no" active="no"/>
<layer number="212" name="212bmp" color="7" fill="1" visible="no" active="no"/>
<layer number="213" name="213bmp" color="7" fill="1" visible="no" active="no"/>
<layer number="214" name="214bmp" color="7" fill="1" visible="no" active="no"/>
<layer number="215" name="215bmp" color="7" fill="1" visible="no" active="no"/>
<layer number="216" name="216bmp" color="7" fill="1" visible="no" active="no"/>
<layer number="217" name="217bmp" color="18" fill="1" visible="no" active="no"/>
<layer number="218" name="218bmp" color="19" fill="1" visible="no" active="no"/>
<layer number="219" name="219bmp" color="20" fill="1" visible="no" active="no"/>
<layer number="220" name="220bmp" color="21" fill="1" visible="no" active="no"/>
<layer number="221" name="221bmp" color="22" fill="1" visible="no" active="no"/>
<layer number="222" name="222bmp" color="23" fill="1" visible="no" active="no"/>
<layer number="223" name="223bmp" color="24" fill="1" visible="no" active="no"/>
<layer number="224" name="224bmp" color="25" fill="1" visible="no" active="no"/>
<layer number="225" name="225bmp" color="7" fill="1" visible="no" active="no"/>
<layer number="226" name="226bmp" color="7" fill="1" visible="no" active="no"/>
<layer number="227" name="227bmp" color="7" fill="1" visible="no" active="no"/>
<layer number="228" name="228bmp" color="7" fill="1" visible="no" active="no"/>
<layer number="229" name="229bmp" color="7" fill="1" visible="no" active="no"/>
<layer number="230" name="230bmp" color="7" fill="1" visible="no" active="no"/>
<layer number="231" name="231bmp" color="7" fill="1" visible="no" active="no"/>
<layer number="232" name="Eagle3D_PG2" color="7" fill="1" visible="no" active="no"/>
<layer number="233" name="Eagle3D_PG3" color="7" fill="1" visible="no" active="no"/>
<layer number="248" name="Housing" color="7" fill="1" visible="no" active="no"/>
<layer number="249" name="Edge" color="7" fill="1" visible="no" active="no"/>
<layer number="250" name="Descript" color="3" fill="1" visible="no" active="no"/>
<layer number="251" name="SMDround" color="12" fill="11" visible="no" active="no"/>
<layer number="253" name="Extra" color="7" fill="1" visible="no" active="no"/>
<layer number="254" name="cooling" color="7" fill="1" visible="no" active="no"/>
<layer number="255" name="routoute" color="7" fill="1" visible="no" active="no"/>
</layers>
<schematic xreflabel="%F%N/%S.%C%R" xrefpart="/%S.%C%R">
<libraries>
<library name="SparkFun-Connectors">
<description>&lt;h3&gt;SparkFun Connectors&lt;/h3&gt;
This library contains electrically-functional connectors. 
&lt;br&gt;
&lt;br&gt;
We've spent an enormous amount of time creating and checking these footprints and parts, but it is &lt;b&gt; the end user's responsibility&lt;/b&gt; to ensure correctness and suitablity for a given componet or application. 
&lt;br&gt;
&lt;br&gt;If you enjoy using this library, please buy one of our products at &lt;a href=" www.sparkfun.com"&gt;SparkFun.com&lt;/a&gt;.
&lt;br&gt;
&lt;br&gt;
&lt;b&gt;Licensing:&lt;/b&gt; Creative Commons ShareAlike 4.0 International - https://creativecommons.org/licenses/by-sa/4.0/ 
&lt;br&gt;
&lt;br&gt;
You are welcome to use this library for commercial purposes. For attribution, we ask that when you begin to sell your device using our footprint, you email us with a link to the product being sold. We want bragging rights that we helped (in a very small part) to create your 8th world wonder. We would like the opportunity to feature your device on our homepage.</description>
<packages>
<package name="1X05">
<description>&lt;h3&gt;Plated Through Hole - 5 Pin&lt;/h3&gt;
&lt;p&gt;Specifications:
&lt;ul&gt;&lt;li&gt;Pin count:5&lt;/li&gt;
&lt;li&gt;Pin pitch:0.1"&lt;/li&gt;
&lt;/ul&gt;&lt;/p&gt;
&lt;p&gt;Example device(s):
&lt;ul&gt;&lt;li&gt;CONN_05&lt;/li&gt;
&lt;/ul&gt;&lt;/p&gt;</description>
<wire x1="6.985" y1="1.27" x2="8.255" y2="1.27" width="0.2032" layer="21"/>
<wire x1="8.255" y1="1.27" x2="8.89" y2="0.635" width="0.2032" layer="21"/>
<wire x1="8.89" y1="-0.635" x2="8.255" y2="-1.27" width="0.2032" layer="21"/>
<wire x1="8.89" y1="0.635" x2="9.525" y2="1.27" width="0.2032" layer="21"/>
<wire x1="9.525" y1="1.27" x2="10.795" y2="1.27" width="0.2032" layer="21"/>
<wire x1="10.795" y1="1.27" x2="11.43" y2="0.635" width="0.2032" layer="21"/>
<wire x1="11.43" y1="-0.635" x2="10.795" y2="-1.27" width="0.2032" layer="21"/>
<wire x1="10.795" y1="-1.27" x2="9.525" y2="-1.27" width="0.2032" layer="21"/>
<wire x1="9.525" y1="-1.27" x2="8.89" y2="-0.635" width="0.2032" layer="21"/>
<wire x1="3.81" y1="0.635" x2="4.445" y2="1.27" width="0.2032" layer="21"/>
<wire x1="4.445" y1="1.27" x2="5.715" y2="1.27" width="0.2032" layer="21"/>
<wire x1="5.715" y1="1.27" x2="6.35" y2="0.635" width="0.2032" layer="21"/>
<wire x1="6.35" y1="-0.635" x2="5.715" y2="-1.27" width="0.2032" layer="21"/>
<wire x1="5.715" y1="-1.27" x2="4.445" y2="-1.27" width="0.2032" layer="21"/>
<wire x1="4.445" y1="-1.27" x2="3.81" y2="-0.635" width="0.2032" layer="21"/>
<wire x1="6.985" y1="1.27" x2="6.35" y2="0.635" width="0.2032" layer="21"/>
<wire x1="6.35" y1="-0.635" x2="6.985" y2="-1.27" width="0.2032" layer="21"/>
<wire x1="8.255" y1="-1.27" x2="6.985" y2="-1.27" width="0.2032" layer="21"/>
<wire x1="-0.635" y1="1.27" x2="0.635" y2="1.27" width="0.2032" layer="21"/>
<wire x1="0.635" y1="1.27" x2="1.27" y2="0.635" width="0.2032" layer="21"/>
<wire x1="1.27" y1="-0.635" x2="0.635" y2="-1.27" width="0.2032" layer="21"/>
<wire x1="1.27" y1="0.635" x2="1.905" y2="1.27" width="0.2032" layer="21"/>
<wire x1="1.905" y1="1.27" x2="3.175" y2="1.27" width="0.2032" layer="21"/>
<wire x1="3.175" y1="1.27" x2="3.81" y2="0.635" width="0.2032" layer="21"/>
<wire x1="3.81" y1="-0.635" x2="3.175" y2="-1.27" width="0.2032" layer="21"/>
<wire x1="3.175" y1="-1.27" x2="1.905" y2="-1.27" width="0.2032" layer="21"/>
<wire x1="1.905" y1="-1.27" x2="1.27" y2="-0.635" width="0.2032" layer="21"/>
<wire x1="-1.27" y1="0.635" x2="-1.27" y2="-0.635" width="0.2032" layer="21"/>
<wire x1="-0.635" y1="1.27" x2="-1.27" y2="0.635" width="0.2032" layer="21"/>
<wire x1="-1.27" y1="-0.635" x2="-0.635" y2="-1.27" width="0.2032" layer="21"/>
<wire x1="0.635" y1="-1.27" x2="-0.635" y2="-1.27" width="0.2032" layer="21"/>
<wire x1="11.43" y1="0.635" x2="11.43" y2="-0.635" width="0.2032" layer="21"/>
<pad name="1" x="0" y="0" drill="1.016" diameter="1.8796" rot="R90"/>
<pad name="2" x="2.54" y="0" drill="1.016" diameter="1.8796" rot="R90"/>
<pad name="3" x="5.08" y="0" drill="1.016" diameter="1.8796" rot="R90"/>
<pad name="4" x="7.62" y="0" drill="1.016" diameter="1.8796" rot="R90"/>
<pad name="5" x="10.16" y="0" drill="1.016" diameter="1.8796" rot="R90"/>
<rectangle x1="9.906" y1="-0.254" x2="10.414" y2="0.254" layer="51"/>
<rectangle x1="7.366" y1="-0.254" x2="7.874" y2="0.254" layer="51"/>
<rectangle x1="4.826" y1="-0.254" x2="5.334" y2="0.254" layer="51"/>
<rectangle x1="2.286" y1="-0.254" x2="2.794" y2="0.254" layer="51"/>
<rectangle x1="-0.254" y1="-0.254" x2="0.254" y2="0.254" layer="51"/>
<text x="-1.27" y="1.397" size="0.6096" layer="25" font="vector" ratio="20">&gt;NAME</text>
<text x="-1.27" y="-2.032" size="0.6096" layer="27" font="vector" ratio="20">&gt;VALUE</text>
</package>
<package name="1X05_1.27MM">
<description>&lt;h3&gt;Plated Through Hole - 5 Pin&lt;/h3&gt;
&lt;p&gt;Specifications:
&lt;ul&gt;&lt;li&gt;Pin count:5&lt;/li&gt;
&lt;li&gt;Pin pitch: 1.27mm&lt;/li&gt;
&lt;/ul&gt;&lt;/p&gt;
&lt;p&gt;Example device(s):
&lt;ul&gt;&lt;li&gt;CONN_05&lt;/li&gt;
&lt;/ul&gt;&lt;/p&gt;</description>
<wire x1="-0.381" y1="-0.889" x2="0.381" y2="-0.889" width="0.127" layer="21"/>
<wire x1="0.381" y1="-0.889" x2="0.635" y2="-0.635" width="0.127" layer="21"/>
<wire x1="0.635" y1="-0.635" x2="0.889" y2="-0.889" width="0.127" layer="21"/>
<wire x1="0.889" y1="-0.889" x2="1.651" y2="-0.889" width="0.127" layer="21"/>
<wire x1="1.651" y1="-0.889" x2="1.905" y2="-0.635" width="0.127" layer="21"/>
<wire x1="1.905" y1="-0.635" x2="2.159" y2="-0.889" width="0.127" layer="21"/>
<wire x1="2.159" y1="-0.889" x2="2.921" y2="-0.889" width="0.127" layer="21"/>
<wire x1="2.921" y1="-0.889" x2="3.175" y2="-0.635" width="0.127" layer="21"/>
<wire x1="3.175" y1="-0.635" x2="3.429" y2="-0.889" width="0.127" layer="21"/>
<wire x1="3.429" y1="-0.889" x2="4.191" y2="-0.889" width="0.127" layer="21"/>
<wire x1="4.191" y1="-0.889" x2="4.445" y2="-0.635" width="0.127" layer="21"/>
<wire x1="4.445" y1="-0.635" x2="4.699" y2="-0.889" width="0.127" layer="21"/>
<wire x1="4.699" y1="-0.889" x2="5.461" y2="-0.889" width="0.127" layer="21"/>
<wire x1="5.461" y1="0.889" x2="4.699" y2="0.889" width="0.127" layer="21"/>
<wire x1="4.699" y1="0.889" x2="4.445" y2="0.635" width="0.127" layer="21"/>
<wire x1="4.445" y1="0.635" x2="4.191" y2="0.889" width="0.127" layer="21"/>
<wire x1="4.191" y1="0.889" x2="3.429" y2="0.889" width="0.127" layer="21"/>
<wire x1="3.429" y1="0.889" x2="3.175" y2="0.635" width="0.127" layer="21"/>
<wire x1="3.175" y1="0.635" x2="2.921" y2="0.889" width="0.127" layer="21"/>
<wire x1="2.921" y1="0.889" x2="2.159" y2="0.889" width="0.127" layer="21"/>
<wire x1="2.159" y1="0.889" x2="1.905" y2="0.635" width="0.127" layer="21"/>
<wire x1="1.905" y1="0.635" x2="1.651" y2="0.889" width="0.127" layer="21"/>
<wire x1="1.651" y1="0.889" x2="0.889" y2="0.889" width="0.127" layer="21"/>
<wire x1="0.889" y1="0.889" x2="0.635" y2="0.635" width="0.127" layer="21"/>
<wire x1="0.635" y1="0.635" x2="0.381" y2="0.889" width="0.127" layer="21"/>
<wire x1="0.381" y1="0.889" x2="-0.381" y2="0.889" width="0.127" layer="21"/>
<wire x1="-0.381" y1="0.889" x2="-0.889" y2="0.381" width="0.127" layer="21"/>
<wire x1="-0.889" y1="-0.381" x2="-0.381" y2="-0.889" width="0.127" layer="21"/>
<wire x1="-0.889" y1="0.381" x2="-0.889" y2="-0.381" width="0.127" layer="21"/>
<wire x1="5.461" y1="0.889" x2="5.969" y2="0.381" width="0.127" layer="21"/>
<wire x1="5.969" y1="0.381" x2="5.969" y2="-0.381" width="0.127" layer="21"/>
<wire x1="5.969" y1="-0.381" x2="5.461" y2="-0.889" width="0.127" layer="21"/>
<pad name="5" x="5.08" y="0" drill="0.508" diameter="1"/>
<pad name="4" x="3.81" y="0" drill="0.508" diameter="1"/>
<pad name="3" x="2.54" y="0" drill="0.508" diameter="1"/>
<pad name="2" x="1.27" y="0" drill="0.508" diameter="1"/>
<pad name="1" x="0" y="0" drill="0.508" diameter="1"/>
<text x="-0.381" y="1.143" size="0.6096" layer="25" font="vector" ratio="20">&gt;NAME</text>
<text x="-0.508" y="-1.651" size="0.6096" layer="27" font="vector" ratio="20">&gt;VALUE</text>
</package>
<package name="1X05_LOCK">
<description>&lt;h3&gt;Plated Through Hole - 5 Pin with Locking Footprint&lt;/h3&gt;
Holes are offset 0.005" from center, locking pins in place during soldering.
&lt;p&gt;Specifications:
&lt;ul&gt;&lt;li&gt;Pin count:5&lt;/li&gt;
&lt;li&gt;Pin pitch:0.1"&lt;/li&gt;
&lt;/ul&gt;&lt;/p&gt;
&lt;p&gt;Example device(s):
&lt;ul&gt;&lt;li&gt;CONN_05&lt;/li&gt;
&lt;/ul&gt;&lt;/p&gt;</description>
<wire x1="6.985" y1="1.27" x2="8.255" y2="1.27" width="0.2032" layer="21"/>
<wire x1="8.255" y1="1.27" x2="8.89" y2="0.635" width="0.2032" layer="21"/>
<wire x1="8.89" y1="-0.635" x2="8.255" y2="-1.27" width="0.2032" layer="21"/>
<wire x1="8.89" y1="0.635" x2="9.525" y2="1.27" width="0.2032" layer="21"/>
<wire x1="9.525" y1="1.27" x2="10.795" y2="1.27" width="0.2032" layer="21"/>
<wire x1="10.795" y1="1.27" x2="11.43" y2="0.635" width="0.2032" layer="21"/>
<wire x1="11.43" y1="-0.635" x2="10.795" y2="-1.27" width="0.2032" layer="21"/>
<wire x1="10.795" y1="-1.27" x2="9.525" y2="-1.27" width="0.2032" layer="21"/>
<wire x1="9.525" y1="-1.27" x2="8.89" y2="-0.635" width="0.2032" layer="21"/>
<wire x1="3.81" y1="0.635" x2="4.445" y2="1.27" width="0.2032" layer="21"/>
<wire x1="4.445" y1="1.27" x2="5.715" y2="1.27" width="0.2032" layer="21"/>
<wire x1="5.715" y1="1.27" x2="6.35" y2="0.635" width="0.2032" layer="21"/>
<wire x1="6.35" y1="-0.635" x2="5.715" y2="-1.27" width="0.2032" layer="21"/>
<wire x1="5.715" y1="-1.27" x2="4.445" y2="-1.27" width="0.2032" layer="21"/>
<wire x1="4.445" y1="-1.27" x2="3.81" y2="-0.635" width="0.2032" layer="21"/>
<wire x1="6.985" y1="1.27" x2="6.35" y2="0.635" width="0.2032" layer="21"/>
<wire x1="6.35" y1="-0.635" x2="6.985" y2="-1.27" width="0.2032" layer="21"/>
<wire x1="8.255" y1="-1.27" x2="6.985" y2="-1.27" width="0.2032" layer="21"/>
<wire x1="-0.635" y1="1.27" x2="0.635" y2="1.27" width="0.2032" layer="21"/>
<wire x1="0.635" y1="1.27" x2="1.27" y2="0.635" width="0.2032" layer="21"/>
<wire x1="1.27" y1="-0.635" x2="0.635" y2="-1.27" width="0.2032" layer="21"/>
<wire x1="1.27" y1="0.635" x2="1.905" y2="1.27" width="0.2032" layer="21"/>
<wire x1="1.905" y1="1.27" x2="3.175" y2="1.27" width="0.2032" layer="21"/>
<wire x1="3.175" y1="1.27" x2="3.81" y2="0.635" width="0.2032" layer="21"/>
<wire x1="3.81" y1="-0.635" x2="3.175" y2="-1.27" width="0.2032" layer="21"/>
<wire x1="3.175" y1="-1.27" x2="1.905" y2="-1.27" width="0.2032" layer="21"/>
<wire x1="1.905" y1="-1.27" x2="1.27" y2="-0.635" width="0.2032" layer="21"/>
<wire x1="-1.27" y1="0.635" x2="-1.27" y2="-0.635" width="0.2032" layer="21"/>
<wire x1="-0.635" y1="1.27" x2="-1.27" y2="0.635" width="0.2032" layer="21"/>
<wire x1="-1.27" y1="-0.635" x2="-0.635" y2="-1.27" width="0.2032" layer="21"/>
<wire x1="0.635" y1="-1.27" x2="-0.635" y2="-1.27" width="0.2032" layer="21"/>
<wire x1="11.43" y1="0.635" x2="11.43" y2="-0.635" width="0.2032" layer="21"/>
<pad name="1" x="0" y="0.127" drill="1.016" diameter="1.8796" rot="R90"/>
<pad name="2" x="2.54" y="-0.127" drill="1.016" diameter="1.8796" rot="R90"/>
<pad name="3" x="5.08" y="0.127" drill="1.016" diameter="1.8796" rot="R90"/>
<pad name="4" x="7.62" y="-0.127" drill="1.016" diameter="1.8796" rot="R90"/>
<pad name="5" x="10.16" y="0.127" drill="1.016" diameter="1.8796" rot="R90"/>
<rectangle x1="9.906" y1="-0.254" x2="10.414" y2="0.254" layer="51"/>
<rectangle x1="7.366" y1="-0.254" x2="7.874" y2="0.254" layer="51"/>
<rectangle x1="4.826" y1="-0.254" x2="5.334" y2="0.254" layer="51"/>
<rectangle x1="2.286" y1="-0.254" x2="2.794" y2="0.254" layer="51"/>
<rectangle x1="-0.254" y1="-0.254" x2="0.254" y2="0.254" layer="51"/>
<text x="-1.27" y="1.397" size="0.6096" layer="25" font="vector" ratio="20">&gt;NAME</text>
<text x="-1.27" y="-2.032" size="0.6096" layer="27" font="vector" ratio="20">&gt;VALUE</text>
</package>
<package name="1X05_LOCK_LONGPADS">
<description>&lt;h3&gt;Plated Through Hole - 5 Pin Long Pad with Locking Footprint&lt;/h3&gt;
Holes are offset 0.005" from center, locking pins in place during soldering.
&lt;p&gt;Specifications:
&lt;ul&gt;&lt;li&gt;Pin count:5&lt;/li&gt;
&lt;li&gt;Pin pitch:0.1"&lt;/li&gt;
&lt;/ul&gt;&lt;/p&gt;
&lt;p&gt;Example device(s):
&lt;ul&gt;&lt;li&gt;CONN_05&lt;/li&gt;
&lt;/ul&gt;&lt;/p&gt;</description>
<wire x1="1.524" y1="-0.127" x2="1.016" y2="-0.127" width="0.2032" layer="21"/>
<wire x1="4.064" y1="-0.127" x2="3.556" y2="-0.127" width="0.2032" layer="21"/>
<wire x1="6.604" y1="-0.127" x2="6.096" y2="-0.127" width="0.2032" layer="21"/>
<wire x1="9.144" y1="-0.127" x2="8.636" y2="-0.127" width="0.2032" layer="21"/>
<wire x1="-1.27" y1="-0.127" x2="-1.016" y2="-0.127" width="0.2032" layer="21"/>
<wire x1="-1.27" y1="-0.127" x2="-1.27" y2="0.8636" width="0.2032" layer="21"/>
<wire x1="-1.27" y1="0.8636" x2="-0.9906" y2="1.143" width="0.2032" layer="21"/>
<wire x1="-1.27" y1="-0.127" x2="-1.27" y2="-1.1176" width="0.2032" layer="21"/>
<wire x1="-1.27" y1="-1.1176" x2="-0.9906" y2="-1.397" width="0.2032" layer="21"/>
<wire x1="11.43" y1="-0.127" x2="11.176" y2="-0.127" width="0.2032" layer="21"/>
<wire x1="11.43" y1="-0.127" x2="11.43" y2="-1.1176" width="0.2032" layer="21"/>
<wire x1="11.43" y1="-1.1176" x2="11.1506" y2="-1.397" width="0.2032" layer="21"/>
<wire x1="11.43" y1="-0.127" x2="11.43" y2="0.8636" width="0.2032" layer="21"/>
<wire x1="11.43" y1="0.8636" x2="11.1506" y2="1.143" width="0.2032" layer="21"/>
<pad name="1" x="0" y="0" drill="1.016" shape="long" rot="R90"/>
<pad name="2" x="2.54" y="-0.254" drill="1.016" shape="long" rot="R90"/>
<pad name="3" x="5.08" y="0" drill="1.016" shape="long" rot="R90"/>
<pad name="4" x="7.62" y="-0.254" drill="1.016" shape="long" rot="R90"/>
<pad name="5" x="10.16" y="0" drill="1.016" shape="long" rot="R90"/>
<rectangle x1="-0.2921" y1="-0.4191" x2="0.2921" y2="0.1651" layer="51"/>
<rectangle x1="2.2479" y1="-0.4191" x2="2.8321" y2="0.1651" layer="51"/>
<rectangle x1="4.7879" y1="-0.4191" x2="5.3721" y2="0.1651" layer="51"/>
<rectangle x1="7.3279" y1="-0.4191" x2="7.9121" y2="0.1651" layer="51" rot="R90"/>
<rectangle x1="9.8679" y1="-0.4191" x2="10.4521" y2="0.1651" layer="51"/>
<text x="-1.27" y="1.778" size="0.6096" layer="25" font="vector" ratio="20">&gt;NAME</text>
<text x="-1.397" y="-2.413" size="0.6096" layer="27" font="vector" ratio="20">&gt;VALUE</text>
</package>
<package name="1X05_LONGPADS">
<description>&lt;h3&gt;Plated Through Hole - 5 Pin Long Pads&lt;/h3&gt;
&lt;p&gt;Specifications:
&lt;ul&gt;&lt;li&gt;Pin count:5&lt;/li&gt;
&lt;li&gt;Pin pitch:0.1"&lt;/li&gt;
&lt;/ul&gt;&lt;/p&gt;
&lt;p&gt;Example device(s):
&lt;ul&gt;&lt;li&gt;CONN_05&lt;/li&gt;
&lt;/ul&gt;&lt;/p&gt;</description>
<wire x1="-1.27" y1="0.635" x2="-1.27" y2="-0.635" width="0.2032" layer="21"/>
<wire x1="11.43" y1="0.635" x2="11.43" y2="-0.635" width="0.2032" layer="21"/>
<pad name="1" x="0" y="0" drill="1.1176" diameter="1.8796" shape="long" rot="R90"/>
<pad name="2" x="2.54" y="0" drill="1.1176" diameter="1.8796" shape="long" rot="R90"/>
<pad name="3" x="5.08" y="0" drill="1.1176" diameter="1.8796" shape="long" rot="R90"/>
<pad name="4" x="7.62" y="0" drill="1.1176" diameter="1.8796" shape="long" rot="R90"/>
<pad name="5" x="10.16" y="0" drill="1.1176" diameter="1.8796" shape="long" rot="R90"/>
<rectangle x1="9.906" y1="-0.254" x2="10.414" y2="0.254" layer="51"/>
<rectangle x1="7.366" y1="-0.254" x2="7.874" y2="0.254" layer="51"/>
<rectangle x1="4.826" y1="-0.254" x2="5.334" y2="0.254" layer="51"/>
<rectangle x1="2.286" y1="-0.254" x2="2.794" y2="0.254" layer="51"/>
<rectangle x1="-0.254" y1="-0.254" x2="0.254" y2="0.254" layer="51"/>
<text x="-1.27" y="2.032" size="0.6096" layer="25" font="vector" ratio="20">&gt;NAME</text>
<text x="-1.27" y="-2.667" size="0.6096" layer="27" font="vector" ratio="20">&gt;VALUE</text>
</package>
<package name="1X05_1MM">
<description>&lt;h3&gt;SMD - 5 Pin&lt;/h3&gt;
&lt;p&gt;Specifications:
&lt;ul&gt;&lt;li&gt;Pin count:5&lt;/li&gt;
&lt;li&gt;Pin pitch:0.1"&lt;/li&gt;
&lt;/ul&gt;&lt;/p&gt;
&lt;p&gt;&lt;a href=”http://www.sparkfun.com/datasheets/GPS/EM408-SMDConnector.pdf”&gt;Datasheet referenced for footprint&lt;/a&gt;&lt;/p&gt;
&lt;p&gt;Example device(s):
&lt;ul&gt;&lt;li&gt;CONN_05&lt;/li&gt;
&lt;li&gt;EM-408&lt;/li&gt;
&lt;/ul&gt;&lt;/p&gt;</description>
<wire x1="2" y1="2.921" x2="-2.08" y2="2.921" width="0.254" layer="21"/>
<wire x1="3.778" y1="0.762" x2="3.778" y2="-0.635" width="0.254" layer="21"/>
<wire x1="-2.842" y1="-0.635" x2="-3.858" y2="-0.635" width="0.254" layer="21"/>
<wire x1="-3.858" y1="-0.635" x2="-3.858" y2="0.762" width="0.254" layer="21"/>
<wire x1="3.778" y1="-0.635" x2="2.762" y2="-0.635" width="0.254" layer="21"/>
<smd name="NC2" x="3.3" y="2.225" dx="1.2" dy="1.8" layer="1" rot="R180"/>
<smd name="NC1" x="-3.3" y="2.225" dx="1.2" dy="1.8" layer="1" rot="R180"/>
<smd name="5" x="2" y="0" dx="0.6" dy="1.55" layer="1" rot="R180"/>
<smd name="4" x="1" y="0" dx="0.6" dy="1.55" layer="1" rot="R180"/>
<smd name="3" x="0" y="0" dx="0.6" dy="1.55" layer="1" rot="R180"/>
<smd name="2" x="-1" y="0" dx="0.6" dy="1.55" layer="1" rot="R180"/>
<smd name="1" x="-2" y="0" dx="0.6" dy="1.55" layer="1" rot="R180"/>
<text x="-1.524" y="1.905" size="0.6096" layer="25" font="vector" ratio="20">&gt;NAME</text>
<text x="-1.524" y="1.143" size="0.6096" layer="27" font="vector" ratio="20">&gt;VALUE</text>
<circle x="3.81" y="-1.27" radius="0" width="0.508" layer="21"/>
</package>
<package name="1X05_1MM_RA">
<description>&lt;h3&gt;SMD - 5 Pin Right Angle&lt;/h3&gt;
&lt;p&gt;Specifications:
&lt;ul&gt;&lt;li&gt;Pin count:5&lt;/li&gt;
&lt;li&gt;Pin pitch:0.1"&lt;/li&gt;
&lt;/ul&gt;&lt;/p&gt;
&lt;p&gt;Example device(s):
&lt;ul&gt;&lt;li&gt;CONN_05&lt;/li&gt;
&lt;/ul&gt;&lt;/p&gt;</description>
<wire x1="-2" y1="-4.6" x2="2" y2="-4.6" width="0.254" layer="21"/>
<wire x1="-3.5" y1="-2" x2="-3.5" y2="-0.35" width="0.254" layer="21"/>
<wire x1="2.75" y1="-0.35" x2="3.5" y2="-0.35" width="0.254" layer="21"/>
<wire x1="3.5" y1="-0.35" x2="3.5" y2="-2" width="0.254" layer="21"/>
<wire x1="-3.5" y1="-0.35" x2="-2.75" y2="-0.35" width="0.254" layer="21"/>
<circle x="-3" y="0.3" radius="0.1414" width="0.4" layer="21"/>
<smd name="NC2" x="-3.3" y="-3.675" dx="1.2" dy="2" layer="1"/>
<smd name="NC1" x="3.3" y="-3.675" dx="1.2" dy="2" layer="1"/>
<smd name="1" x="-2" y="0" dx="0.6" dy="1.35" layer="1"/>
<smd name="2" x="-1" y="0" dx="0.6" dy="1.35" layer="1"/>
<smd name="3" x="0" y="0" dx="0.6" dy="1.35" layer="1"/>
<smd name="4" x="1" y="0" dx="0.6" dy="1.35" layer="1"/>
<smd name="5" x="2" y="0" dx="0.6" dy="1.35" layer="1"/>
<text x="-1.397" y="-2.032" size="0.6096" layer="25" font="vector" ratio="20">&gt;NAME</text>
<text x="-1.651" y="-3.302" size="0.6096" layer="27" font="vector" ratio="20">&gt;VALUE</text>
</package>
<package name="1X05_NO_SILK">
<description>&lt;h3&gt;Plated Through Hole - 5 Pin No Silk Outline&lt;/h3&gt;
&lt;p&gt;Specifications:
&lt;ul&gt;&lt;li&gt;Pin count:5&lt;/li&gt;
&lt;li&gt;Pin pitch:0.1"&lt;/li&gt;
&lt;/ul&gt;&lt;/p&gt;
&lt;p&gt;Example device(s):
&lt;ul&gt;&lt;li&gt;CONN_05&lt;/li&gt;
&lt;/ul&gt;&lt;/p&gt;</description>
<pad name="1" x="0" y="0" drill="1.016" diameter="1.8796" rot="R90"/>
<pad name="2" x="2.54" y="0" drill="1.016" diameter="1.8796" rot="R90"/>
<pad name="3" x="5.08" y="0" drill="1.016" diameter="1.8796" rot="R90"/>
<pad name="4" x="7.62" y="0" drill="1.016" diameter="1.8796" rot="R90"/>
<pad name="5" x="10.16" y="0" drill="1.016" diameter="1.8796" rot="R90"/>
<rectangle x1="9.906" y1="-0.254" x2="10.414" y2="0.254" layer="51"/>
<rectangle x1="7.366" y1="-0.254" x2="7.874" y2="0.254" layer="51"/>
<rectangle x1="4.826" y1="-0.254" x2="5.334" y2="0.254" layer="51"/>
<rectangle x1="2.286" y1="-0.254" x2="2.794" y2="0.254" layer="51"/>
<rectangle x1="-0.254" y1="-0.254" x2="0.254" y2="0.254" layer="51"/>
<text x="-1.27" y="1.397" size="0.6096" layer="25" font="vector" ratio="20">&gt;NAME</text>
<text x="-1.27" y="-2.032" size="0.6096" layer="27" font="vector" ratio="20">&gt;VALUE</text>
</package>
<package name="JST-5-PTH">
<description>&lt;h3&gt;JST 5 Pin Right Angle Plated Through Hole&lt;/h3&gt;
&lt;p&gt;Specifications:
&lt;ul&gt;&lt;li&gt;Pin count: 5&lt;/li&gt;
&lt;li&gt;Pin pitch: 2mm&lt;/li&gt;
&lt;/ul&gt;&lt;/p&gt;
&lt;p&gt;&lt;a href=”https://www.sparkfun.com/datasheets/Prototyping/ePH.pdf”&gt;Datasheet referenced for footprint&lt;/a&gt;&lt;/p&gt;
&lt;p&gt;Example device(s):
&lt;ul&gt;&lt;li&gt;CONN_05&lt;/li&gt;
&lt;/ul&gt;&lt;/p&gt;</description>
<pad name="1" x="-4" y="0" drill="0.7" diameter="1.6"/>
<pad name="2" x="-2" y="0" drill="0.7" diameter="1.6"/>
<pad name="3" x="0" y="0" drill="0.7" diameter="1.6"/>
<pad name="4" x="2" y="0" drill="0.7" diameter="1.6"/>
<pad name="5" x="4" y="0" drill="0.7" diameter="1.6"/>
<wire x1="-5.95" y1="-1.6" x2="-5.95" y2="6" width="0.2032" layer="21"/>
<wire x1="-5.95" y1="6" x2="5.95" y2="6" width="0.2032" layer="21"/>
<wire x1="5.95" y1="6" x2="5.95" y2="-1.6" width="0.2032" layer="21"/>
<wire x1="-5.95" y1="-1.6" x2="-5.3" y2="-1.6" width="0.2032" layer="21"/>
<wire x1="5.95" y1="-1.6" x2="5.3" y2="-1.6" width="0.2032" layer="21"/>
<wire x1="-5.3" y1="-1.6" x2="-5.3" y2="0" width="0.2032" layer="21"/>
<wire x1="5.3" y1="-1.6" x2="5.3" y2="0" width="0.2032" layer="21"/>
<text x="-1.397" y="3.302" size="0.6096" layer="25" font="vector" ratio="20">&gt;NAME</text>
<text x="-1.651" y="2.413" size="0.6096" layer="27" font="vector" ratio="20">&gt;VALUE</text>
</package>
<package name="JST-5-PTH-VERT">
<description>&lt;h3&gt;JST 5 Pin Vertical Plated Through Hole&lt;/h3&gt;
&lt;p&gt;Specifications:
&lt;ul&gt;&lt;li&gt;Pin count: 5&lt;/li&gt;
&lt;li&gt;Pin pitch: 2mm&lt;/li&gt;
&lt;/ul&gt;&lt;/p&gt;
&lt;p&gt;Example device(s):
&lt;ul&gt;&lt;li&gt;CONN_05&lt;/li&gt;
&lt;/ul&gt;&lt;/p&gt;</description>
<wire x1="-5.95" y1="-1.52" x2="-5.95" y2="2.98" width="0.2032" layer="21"/>
<wire x1="-5.95" y1="2.98" x2="5.95" y2="2.98" width="0.2032" layer="21"/>
<wire x1="5.95" y1="-1.52" x2="1" y2="-1.52" width="0.2032" layer="21"/>
<wire x1="-1" y1="-1.52" x2="-5.95" y2="-1.52" width="0.2032" layer="21"/>
<wire x1="-1" y1="-1.02" x2="1" y2="-1.02" width="0.2032" layer="21"/>
<wire x1="1" y1="-1.02" x2="1" y2="-1.52" width="0.2032" layer="21"/>
<wire x1="-1" y1="-1.02" x2="-1" y2="-1.52" width="0.2032" layer="21"/>
<wire x1="5.95" y1="2.98" x2="5.95" y2="-1.52" width="0.2032" layer="21"/>
<pad name="1" x="-4" y="0.18" drill="0.7" diameter="1.6"/>
<pad name="2" x="-2" y="0.18" drill="0.7" diameter="1.6"/>
<pad name="3" x="0" y="0.18" drill="0.7" diameter="1.6"/>
<pad name="4" x="2" y="0.18" drill="0.7" diameter="1.6"/>
<pad name="5" x="4" y="0.18" drill="0.7" diameter="1.6"/>
<text x="-1.651" y="3.302" size="0.6096" layer="25" font="vector" ratio="20">&gt;NAME</text>
<text x="-1.905" y="-2.54" size="0.6096" layer="27" font="vector" ratio="20">&gt;VALUE</text>
</package>
<package name="SCREWTERMINAL-3.5MM-5">
<description>&lt;h3&gt;Screw Terminal  3.5mm Pitch -5 Pin PTH&lt;/h3&gt;
&lt;p&gt;Specifications:
&lt;ul&gt;&lt;li&gt;Pin count: 5&lt;/li&gt;
&lt;li&gt;Pin pitch: 3.5mm/138mil&lt;/li&gt;
&lt;/ul&gt;&lt;/p&gt;
&lt;p&gt;&lt;a href=”https://www.sparkfun.com/datasheets/Prototyping/Screw-Terminal-3.5mm.pdf”&gt;Datasheet referenced for footprint&lt;/a&gt;&lt;/p&gt;
&lt;p&gt;Example device(s):
&lt;ul&gt;&lt;li&gt;CONN_05&lt;/li&gt;
&lt;/ul&gt;&lt;/p&gt;</description>
<wire x1="-1.75" y1="3.4" x2="15.75" y2="3.4" width="0.2032" layer="21"/>
<wire x1="15.75" y1="3.4" x2="15.75" y2="-2.8" width="0.2032" layer="21"/>
<wire x1="15.75" y1="-2.8" x2="15.75" y2="-3.6" width="0.2032" layer="21"/>
<wire x1="15.75" y1="-3.6" x2="-1.75" y2="-3.6" width="0.2032" layer="21"/>
<wire x1="-1.75" y1="-3.6" x2="-1.75" y2="-2.8" width="0.2032" layer="21"/>
<wire x1="-1.75" y1="-2.8" x2="-1.75" y2="3.4" width="0.2032" layer="21"/>
<wire x1="15.75" y1="-2.8" x2="-1.75" y2="-2.8" width="0.2032" layer="21"/>
<wire x1="-1.75" y1="-1.35" x2="-2.25" y2="-1.35" width="0.2032" layer="51"/>
<wire x1="-2.25" y1="-1.35" x2="-2.25" y2="-2.35" width="0.2032" layer="51"/>
<wire x1="-2.25" y1="-2.35" x2="-1.75" y2="-2.35" width="0.2032" layer="51"/>
<wire x1="15.75" y1="3.15" x2="16.25" y2="3.15" width="0.2032" layer="51"/>
<wire x1="16.25" y1="3.15" x2="16.25" y2="2.15" width="0.2032" layer="51"/>
<wire x1="16.25" y1="2.15" x2="15.75" y2="2.15" width="0.2032" layer="51"/>
<pad name="1" x="0" y="0" drill="1.2" diameter="2.032" shape="square"/>
<pad name="2" x="3.5" y="0" drill="1.2" diameter="2.032"/>
<pad name="3" x="7" y="0" drill="1.2" diameter="2.032"/>
<pad name="4" x="10.5" y="0" drill="1.2" diameter="2.032"/>
<pad name="5" x="14" y="0" drill="1.2" diameter="2.032"/>
<text x="5.588" y="2.413" size="0.6096" layer="25" font="vector" ratio="20">&gt;NAME</text>
<text x="5.334" y="1.524" size="0.6096" layer="27" font="vector" ratio="20">&gt;VALUE</text>
</package>
<package name="1X05_SMD_VERTICAL_COMBO">
<description>&lt;h3&gt;SMD - 4 Pin Vertical Connector&lt;/h3&gt;
&lt;p&gt;Specifications:
&lt;ul&gt;&lt;li&gt;Pin count:5&lt;/li&gt;
&lt;li&gt;SMD Pad count:10&lt;/li&gt;
&lt;li&gt;Pin pitch:0.1"&lt;/li&gt;
&lt;/ul&gt;&lt;/p&gt;
&lt;p&gt;Example device(s):
&lt;ul&gt;&lt;li&gt;CONN_05&lt;/li&gt;
&lt;/ul&gt;&lt;/p&gt;</description>
<wire x1="-1.37" y1="-1.25" x2="-1.37" y2="1.25" width="0.1778" layer="21"/>
<wire x1="-0.73" y1="-1.25" x2="-1.37" y2="-1.25" width="0.1778" layer="21"/>
<wire x1="9.4726" y1="-1.25" x2="8.32" y2="-1.25" width="0.1778" layer="21"/>
<wire x1="8.32" y1="1.25" x2="9.4726" y2="1.25" width="0.1778" layer="21"/>
<wire x1="-1.37" y1="1.25" x2="-0.73" y2="1.25" width="0.1778" layer="21"/>
<wire x1="5.7928" y1="-1.29" x2="6.9072" y2="-1.29" width="0.1778" layer="21"/>
<wire x1="5.7928" y1="1.25" x2="6.9072" y2="1.25" width="0.1778" layer="21"/>
<wire x1="3.2782" y1="-1.29" x2="4.3672" y2="-1.29" width="0.1778" layer="21"/>
<wire x1="3.329" y1="1.25" x2="4.291" y2="1.25" width="0.1778" layer="21"/>
<wire x1="0.789" y1="-1.29" x2="1.751" y2="-1.29" width="0.1778" layer="21"/>
<wire x1="0.789" y1="1.25" x2="1.751" y2="1.25" width="0.1778" layer="21"/>
<wire x1="11.53" y1="1.25" x2="11.53" y2="-1.25" width="0.1778" layer="21"/>
<wire x1="11.53" y1="-1.25" x2="10.86" y2="-1.25" width="0.1778" layer="21"/>
<wire x1="10.86" y1="1.25" x2="11.53" y2="1.25" width="0.1778" layer="21"/>
<smd name="1" x="0" y="1.65" dx="2" dy="1" layer="1" rot="R90" stop="no"/>
<smd name="3" x="5.08" y="1.65" dx="2" dy="1" layer="1" rot="R90" stop="no" cream="no"/>
<smd name="4" x="7.62" y="1.652" dx="2" dy="1" layer="1" rot="R90" stop="no" cream="no"/>
<smd name="5" x="10.16" y="1.65" dx="2" dy="1" layer="1" rot="R90" stop="no" cream="no"/>
<text x="-0.381" y="2.858" size="0.6096" layer="25" font="vector" ratio="20">&gt;NAME</text>
<text x="-0.508" y="-3.616" size="0.6096" layer="27" font="vector" ratio="20">&gt;VALUE</text>
<polygon width="0.01" layer="1">
<vertex x="2.04" y="2.65"/>
<vertex x="3.04" y="2.65"/>
<vertex x="3.04" y="0.65"/>
<vertex x="2.74" y="0.65"/>
<vertex x="2.74" y="-0.65"/>
<vertex x="3.04" y="-0.65"/>
<vertex x="3.04" y="-2.65"/>
<vertex x="2.04" y="-2.65"/>
<vertex x="2.04" y="-0.65"/>
<vertex x="2.34" y="-0.65"/>
<vertex x="2.34" y="0.65"/>
<vertex x="2.04" y="0.65"/>
</polygon>
<rectangle x1="1.92" y1="-2.76" x2="3.12" y2="-0.56" layer="29" rot="R180"/>
<rectangle x1="1.92" y1="-2.76" x2="3.12" y2="-0.56" layer="31" rot="R180"/>
<rectangle x1="1.94" y1="0.54" x2="3.14" y2="2.74" layer="29" rot="R180"/>
<rectangle x1="1.94" y1="0.54" x2="3.14" y2="2.74" layer="31" rot="R180"/>
<polygon width="0.01" layer="1">
<vertex x="-0.5" y="2.65"/>
<vertex x="0.5" y="2.65"/>
<vertex x="0.5" y="0.65"/>
<vertex x="0.2" y="0.65"/>
<vertex x="0.2" y="-0.65"/>
<vertex x="0.5" y="-0.65"/>
<vertex x="0.5" y="-2.65"/>
<vertex x="-0.5" y="-2.65"/>
<vertex x="-0.5" y="-0.65"/>
<vertex x="-0.2" y="-0.65"/>
<vertex x="-0.2" y="0.65"/>
<vertex x="-0.5" y="0.65"/>
</polygon>
<rectangle x1="-0.62" y1="-2.76" x2="0.58" y2="-0.56" layer="29" rot="R180"/>
<rectangle x1="-0.62" y1="-2.76" x2="0.58" y2="-0.56" layer="31" rot="R180"/>
<rectangle x1="-0.6" y1="0.54" x2="0.6" y2="2.74" layer="29" rot="R180"/>
<rectangle x1="-0.6" y1="0.54" x2="0.6" y2="2.74" layer="31" rot="R180"/>
<polygon width="0.01" layer="1">
<vertex x="4.59" y="2.65"/>
<vertex x="5.59" y="2.65"/>
<vertex x="5.59" y="0.65"/>
<vertex x="5.29" y="0.65"/>
<vertex x="5.29" y="-0.65"/>
<vertex x="5.59" y="-0.65"/>
<vertex x="5.59" y="-2.65"/>
<vertex x="4.59" y="-2.65"/>
<vertex x="4.59" y="-0.65"/>
<vertex x="4.89" y="-0.65"/>
<vertex x="4.89" y="0.65"/>
<vertex x="4.59" y="0.65"/>
</polygon>
<rectangle x1="4.47" y1="-2.76" x2="5.67" y2="-0.56" layer="29" rot="R180"/>
<rectangle x1="4.47" y1="-2.76" x2="5.67" y2="-0.56" layer="31" rot="R180"/>
<rectangle x1="4.49" y1="0.54" x2="5.69" y2="2.74" layer="29" rot="R180"/>
<rectangle x1="4.49" y1="0.54" x2="5.69" y2="2.74" layer="31" rot="R180"/>
<polygon width="0.01" layer="1">
<vertex x="7.12" y="2.65"/>
<vertex x="8.12" y="2.65"/>
<vertex x="8.12" y="0.65"/>
<vertex x="7.82" y="0.65"/>
<vertex x="7.82" y="-0.65"/>
<vertex x="8.12" y="-0.65"/>
<vertex x="8.12" y="-2.65"/>
<vertex x="7.12" y="-2.65"/>
<vertex x="7.12" y="-0.65"/>
<vertex x="7.42" y="-0.65"/>
<vertex x="7.42" y="0.65"/>
<vertex x="7.12" y="0.65"/>
</polygon>
<rectangle x1="7" y1="-2.76" x2="8.2" y2="-0.56" layer="29" rot="R180"/>
<rectangle x1="7" y1="-2.76" x2="8.2" y2="-0.56" layer="31" rot="R180"/>
<rectangle x1="7.02" y1="0.54" x2="8.22" y2="2.74" layer="29" rot="R180"/>
<rectangle x1="7.02" y1="0.54" x2="8.22" y2="2.74" layer="31" rot="R180"/>
<polygon width="0.01" layer="1">
<vertex x="9.66" y="2.65"/>
<vertex x="10.66" y="2.65"/>
<vertex x="10.66" y="0.65"/>
<vertex x="10.36" y="0.65"/>
<vertex x="10.36" y="-0.65"/>
<vertex x="10.66" y="-0.65"/>
<vertex x="10.66" y="-2.65"/>
<vertex x="9.66" y="-2.65"/>
<vertex x="9.66" y="-0.65"/>
<vertex x="9.96" y="-0.65"/>
<vertex x="9.96" y="0.65"/>
<vertex x="9.66" y="0.65"/>
</polygon>
<rectangle x1="9.54" y1="-2.76" x2="10.74" y2="-0.56" layer="29" rot="R180"/>
<rectangle x1="9.54" y1="-2.76" x2="10.74" y2="-0.56" layer="31" rot="R180"/>
<rectangle x1="9.56" y1="0.54" x2="10.76" y2="2.74" layer="29" rot="R180"/>
<rectangle x1="9.56" y1="0.54" x2="10.76" y2="2.74" layer="31" rot="R180"/>
<smd name="2" x="2.54" y="1.65" dx="2" dy="1" layer="1" rot="R90" stop="no"/>
</package>
<package name="DB9">
<description>&lt;h3&gt;9 Pin Serial Connector - Female PCB Mount Right Angle&lt;/h3&gt;
0.318" style. 
&lt;p&gt;Specifications:
&lt;ul&gt;&lt;li&gt;Pin count:11&lt;/li&gt;
&lt;/ul&gt;&lt;/p&gt;
&lt;p&gt;&lt;a href=”https://www.sparkfun.com/datasheets/Prototyping/Connectors/DB9-PCB.pdf”&gt;Datasheet referenced for footprint&lt;/a&gt;&lt;/p&gt;
&lt;p&gt;Example device(s):
&lt;ul&gt;&lt;li&gt;DB9&lt;/li&gt;
&lt;/ul&gt;&lt;/p&gt;</description>
<wire x1="-8.128" y1="15.299" x2="-7.62" y2="15.807" width="0.2032" layer="51" curve="-90"/>
<wire x1="7.62" y1="15.807" x2="8.128" y2="15.299" width="0.2032" layer="51" curve="-90"/>
<wire x1="-15.4" y1="-2.8" x2="-15.4" y2="2.54" width="0.2032" layer="51"/>
<wire x1="-15.4" y1="2.5426" x2="-15.4" y2="9.5" width="0.2032" layer="51"/>
<wire x1="15.4" y1="-2.8" x2="15.4" y2="2.54" width="0.2032" layer="51"/>
<wire x1="15.4" y1="2.54" x2="15.4" y2="9.5" width="0.2032" layer="51"/>
<wire x1="-8.128" y1="10.219" x2="-8.128" y2="15.299" width="0.2032" layer="51"/>
<wire x1="-8.763" y1="9.584" x2="-8.128" y2="10.219" width="0.2032" layer="51" curve="90"/>
<wire x1="-15.4" y1="9.5" x2="15.4" y2="9.5" width="0.2032" layer="51"/>
<wire x1="8.128" y1="10.219" x2="8.128" y2="15.299" width="0.2032" layer="51"/>
<wire x1="8.128" y1="10.219" x2="8.763" y2="9.584" width="0.2032" layer="51" curve="90"/>
<wire x1="-7.62" y1="15.807" x2="7.62" y2="15.807" width="0.2032" layer="51"/>
<wire x1="-15.4" y1="-2.8" x2="15.4" y2="-2.8" width="0.2032" layer="51"/>
<pad name="1" x="-5.54" y="-1.42" drill="1.016" diameter="1.8796" shape="square"/>
<pad name="2" x="-2.77" y="-1.42" drill="1.016" diameter="1.8796"/>
<pad name="3" x="0" y="-1.42" drill="1.016" diameter="1.8796"/>
<pad name="4" x="2.77" y="-1.42" drill="1.016" diameter="1.8796"/>
<pad name="5" x="5.54" y="-1.42" drill="1.016" diameter="1.8796"/>
<pad name="6" x="-4.15" y="1.42" drill="1.016" diameter="1.8796"/>
<pad name="7" x="-1.38" y="1.42" drill="1.016" diameter="1.8796"/>
<pad name="8" x="1.38" y="1.42" drill="1.016" diameter="1.8796"/>
<pad name="9" x="4.15" y="1.42" drill="1.016" diameter="1.8796"/>
<pad name="G1" x="-12.5" y="0" drill="3.302" diameter="5.08"/>
<pad name="G2" x="12.5" y="0" drill="3.302" diameter="5.08"/>
<text x="-1.905" y="5.588" size="0.6096" layer="25" font="vector" ratio="20">&gt;NAME</text>
<text x="-1.905" y="4.572" size="0.6096" layer="27" font="vector" ratio="20">&gt;VALUE</text>
</package>
<package name="DB9_MALE">
<description>&lt;h3&gt;9 Pin Serial Connector - Male PCB Mount Right Angle&lt;/h3&gt;
0.318" style. 
&lt;p&gt;Specifications:
&lt;ul&gt;&lt;li&gt;Pin count:11&lt;/li&gt;
&lt;/ul&gt;&lt;/p&gt;
&lt;p&gt;&lt;a href=”http://www.4uconnector.com/online/object/4udrawing/15944.pdf”&gt;Datasheet referenced for footprint&lt;/a&gt;&lt;/p&gt;
&lt;p&gt;Example device(s):
&lt;ul&gt;&lt;li&gt;DB9&lt;/li&gt;
&lt;/ul&gt;&lt;/p&gt;</description>
<wire x1="-8.128" y1="15.299" x2="-7.62" y2="15.807" width="0.2032" layer="51" curve="-90"/>
<wire x1="7.62" y1="15.807" x2="8.128" y2="15.299" width="0.2032" layer="51" curve="-90"/>
<wire x1="-15.4" y1="-2.8" x2="-15.4" y2="2.54" width="0.2032" layer="21"/>
<wire x1="-15.4" y1="2.5426" x2="-15.4" y2="9.5" width="0.2032" layer="51"/>
<wire x1="15.4" y1="-2.8" x2="15.4" y2="2.54" width="0.2032" layer="21"/>
<wire x1="15.4" y1="2.54" x2="15.4" y2="9.5" width="0.2032" layer="51"/>
<wire x1="-8.128" y1="10.219" x2="-8.128" y2="15.299" width="0.2032" layer="51"/>
<wire x1="-8.763" y1="9.584" x2="-8.128" y2="10.219" width="0.2032" layer="51" curve="90"/>
<wire x1="-15.4" y1="9.5" x2="15.4" y2="9.5" width="0.2032" layer="51"/>
<wire x1="8.128" y1="10.219" x2="8.128" y2="15.299" width="0.2032" layer="51"/>
<wire x1="8.128" y1="10.219" x2="8.763" y2="9.584" width="0.2032" layer="51" curve="90"/>
<wire x1="-7.62" y1="15.807" x2="7.62" y2="15.807" width="0.2032" layer="51"/>
<wire x1="-15.4" y1="-2.8" x2="15.4" y2="-2.8" width="0.2032" layer="21"/>
<pad name="5" x="-5.54" y="-1.42" drill="1.016" diameter="1.8796"/>
<pad name="4" x="-2.77" y="-1.42" drill="1.016" diameter="1.8796"/>
<pad name="3" x="0" y="-1.42" drill="1.016" diameter="1.8796"/>
<pad name="2" x="2.77" y="-1.42" drill="1.016" diameter="1.8796"/>
<pad name="1" x="5.54" y="-1.42" drill="1.016" diameter="1.8796" shape="square"/>
<pad name="9" x="-4.15" y="1.42" drill="1.016" diameter="1.8796"/>
<pad name="8" x="-1.38" y="1.42" drill="1.016" diameter="1.8796"/>
<pad name="7" x="1.38" y="1.42" drill="1.016" diameter="1.8796"/>
<pad name="6" x="4.15" y="1.42" drill="1.016" diameter="1.8796"/>
<pad name="G1" x="-12.5" y="0" drill="3.302" diameter="5.08"/>
<pad name="G2" x="12.5" y="0" drill="3.302" diameter="5.08"/>
<text x="-1.905" y="5.588" size="0.6096" layer="25" font="vector" ratio="20">&gt;NAME</text>
<text x="-1.905" y="4.572" size="0.6096" layer="27" font="vector" ratio="20">&gt;VALUE</text>
</package>
</packages>
<symbols>
<symbol name="CONN_05">
<description>&lt;h3&gt;5 Pin Connection&lt;/h3&gt;</description>
<wire x1="3.81" y1="-7.62" x2="-2.54" y2="-7.62" width="0.4064" layer="94"/>
<wire x1="1.27" y1="0" x2="2.54" y2="0" width="0.6096" layer="94"/>
<wire x1="1.27" y1="-2.54" x2="2.54" y2="-2.54" width="0.6096" layer="94"/>
<wire x1="1.27" y1="-5.08" x2="2.54" y2="-5.08" width="0.6096" layer="94"/>
<wire x1="-2.54" y1="7.62" x2="-2.54" y2="-7.62" width="0.4064" layer="94"/>
<wire x1="3.81" y1="-7.62" x2="3.81" y2="7.62" width="0.4064" layer="94"/>
<wire x1="-2.54" y1="7.62" x2="3.81" y2="7.62" width="0.4064" layer="94"/>
<wire x1="1.27" y1="5.08" x2="2.54" y2="5.08" width="0.6096" layer="94"/>
<wire x1="1.27" y1="2.54" x2="2.54" y2="2.54" width="0.6096" layer="94"/>
<text x="-2.54" y="-9.906" size="1.778" layer="96" font="vector">&gt;VALUE</text>
<text x="-2.54" y="8.128" size="1.778" layer="95" font="vector">&gt;NAME</text>
<pin name="1" x="7.62" y="-5.08" visible="pad" length="middle" direction="pas" swaplevel="1" rot="R180"/>
<pin name="2" x="7.62" y="-2.54" visible="pad" length="middle" direction="pas" swaplevel="1" rot="R180"/>
<pin name="3" x="7.62" y="0" visible="pad" length="middle" direction="pas" swaplevel="1" rot="R180"/>
<pin name="4" x="7.62" y="2.54" visible="pad" length="middle" direction="pas" swaplevel="1" rot="R180"/>
<pin name="5" x="7.62" y="5.08" visible="pad" length="middle" direction="pas" swaplevel="1" rot="R180"/>
</symbol>
<symbol name="F09G">
<description>&lt;h3&gt;DB9 Connector&lt;/h3&gt;
Standard DB9 (D-Sub 9) serial connector. Can be used for CAN bus as well as RS485 and RS232.</description>
<wire x1="-1.651" y1="3.429" x2="-1.651" y2="1.651" width="0.254" layer="94" curve="180" cap="flat"/>
<wire x1="1.524" y1="1.651" x2="1.524" y2="3.429" width="0.254" layer="94" curve="180" cap="flat"/>
<wire x1="-1.651" y1="5.969" x2="-1.651" y2="4.191" width="0.254" layer="94" curve="180" cap="flat"/>
<wire x1="1.524" y1="-3.429" x2="1.524" y2="-1.651" width="0.254" layer="94" curve="180" cap="flat"/>
<wire x1="-1.651" y1="0.889" x2="-1.651" y2="-0.889" width="0.254" layer="94" curve="180" cap="flat"/>
<wire x1="1.524" y1="-0.889" x2="1.524" y2="0.889" width="0.254" layer="94" curve="180" cap="flat"/>
<wire x1="-1.651" y1="-1.651" x2="-1.651" y2="-3.429" width="0.254" layer="94" curve="180" cap="flat"/>
<wire x1="1.524" y1="-5.969" x2="1.524" y2="-4.191" width="0.254" layer="94" curve="180" cap="flat"/>
<wire x1="-1.651" y1="-4.191" x2="-1.651" y2="-5.969" width="0.254" layer="94" curve="180" cap="flat"/>
<wire x1="-4.064" y1="6.9312" x2="-2.5226" y2="8.172" width="0.4064" layer="94" curve="-102.324066" cap="flat"/>
<wire x1="-2.5226" y1="8.1718" x2="0" y2="7.62" width="0.4064" layer="94"/>
<wire x1="0" y1="7.62" x2="3.0654" y2="6.9494" width="0.4064" layer="94"/>
<wire x1="3.0654" y1="6.9495" x2="4.0642" y2="5.7088" width="0.4064" layer="94" curve="-77.655139" cap="flat"/>
<wire x1="4.064" y1="-5.7088" x2="4.064" y2="5.7088" width="0.4064" layer="94"/>
<wire x1="3.0654" y1="-6.9494" x2="4.064" y2="-5.7088" width="0.4064" layer="94" curve="77.657889"/>
<wire x1="-4.064" y1="-6.9312" x2="-4.064" y2="6.9312" width="0.4064" layer="94"/>
<wire x1="-2.5226" y1="-8.1718" x2="0" y2="-7.62" width="0.4064" layer="94"/>
<wire x1="0" y1="-7.62" x2="3.0654" y2="-6.9494" width="0.4064" layer="94"/>
<wire x1="-4.064" y1="-6.9312" x2="-2.5226" y2="-8.1719" width="0.4064" layer="94" curve="102.337599" cap="flat"/>
<text x="-3.81" y="-8.382" size="1.778" layer="96" font="vector" align="top-left">&gt;VALUE</text>
<text x="-3.81" y="8.636" size="1.778" layer="95" font="vector">&gt;NAME</text>
<pin name="1" x="-7.62" y="5.08" visible="pad" length="middle" direction="pas"/>
<pin name="6" x="7.62" y="2.54" visible="pad" length="middle" direction="pas" rot="R180"/>
<pin name="2" x="-7.62" y="2.54" visible="pad" length="middle" direction="pas"/>
<pin name="7" x="7.62" y="0" visible="pad" length="middle" direction="pas" rot="R180"/>
<pin name="3" x="-7.62" y="0" visible="pad" length="middle" direction="pas"/>
<pin name="8" x="7.62" y="-2.54" visible="pad" length="middle" direction="pas" rot="R180"/>
<pin name="4" x="-7.62" y="-2.54" visible="pad" length="middle" direction="pas"/>
<pin name="9" x="7.62" y="-5.08" visible="pad" length="middle" direction="pas" rot="R180"/>
<pin name="5" x="-7.62" y="-5.08" visible="pad" length="middle" direction="pas"/>
</symbol>
</symbols>
<devicesets>
<deviceset name="CONN_05" prefix="J" uservalue="yes">
<description>&lt;h3&gt;Multi connection point. Often used as Generic Header-pin footprint for 0.1 inch spaced/style header connections&lt;/h3&gt;

&lt;p&gt;&lt;/p&gt;
&lt;b&gt;On any of the 0.1 inch spaced packages, you can populate with these:&lt;/b&gt;
&lt;ul&gt;
&lt;li&gt;&lt;a href="https://www.sparkfun.com/products/116"&gt; Break Away Headers - Straight&lt;/a&gt; (PRT-00116)&lt;/li&gt;
&lt;li&gt;&lt;a href="https://www.sparkfun.com/products/553"&gt; Break Away Male Headers - Right Angle&lt;/a&gt; (PRT-00553)&lt;/li&gt;
&lt;li&gt;&lt;a href="https://www.sparkfun.com/products/115"&gt; Female Headers&lt;/a&gt; (PRT-00115)&lt;/li&gt;
&lt;li&gt;&lt;a href="https://www.sparkfun.com/products/117"&gt; Break Away Headers - Machine Pin&lt;/a&gt; (PRT-00117)&lt;/li&gt;
&lt;li&gt;&lt;a href="https://www.sparkfun.com/products/743"&gt; Break Away Female Headers - Swiss Machine Pin&lt;/a&gt; (PRT-00743)&lt;/li&gt;
&lt;/ul&gt;

&lt;p&gt;&lt;/p&gt;
&lt;b&gt; For SCREWTERMINALS and SPRING TERMINALS visit here:&lt;/b&gt;
&lt;ul&gt;
&lt;li&gt;&lt;a href="https://www.sparkfun.com/search/results?term=Screw+Terminals"&gt; Screw Terimnals on SparkFun.com&lt;/a&gt; (5mm/3.5mm/2.54mm spacing)&lt;/li&gt;
&lt;/ul&gt;

&lt;p&gt;&lt;/p&gt;
&lt;b&gt;This device is also useful as a general connection point to wire up your design to another part of your project. Our various solder wires solder well into these plated through hole pads.&lt;/b&gt;
&lt;ul&gt;
&lt;li&gt;&lt;a href="https://www.sparkfun.com/products/11375"&gt; Hook-Up Wire - Assortment (Stranded, 22 AWG)&lt;/a&gt; (PRT-11375)&lt;/li&gt;
&lt;li&gt;&lt;a href="https://www.sparkfun.com/products/11367"&gt; Hook-Up Wire - Assortment (Solid Core, 22 AWG)&lt;/a&gt; (PRT-11367)&lt;/li&gt;
&lt;li&gt;&lt;a href="https://www.sparkfun.com/categories/141"&gt; View the entire wire category on our website here&lt;/a&gt;&lt;/li&gt;
&lt;p&gt;&lt;/p&gt;
&lt;/ul&gt;

&lt;p&gt;&lt;/p&gt;
&lt;b&gt;Special notes:&lt;/b&gt;
&lt;p&gt; &lt;/p&gt; Molex polarized connector foot print use with SKU : PRT-08231 with associated crimp pins and housings. 1MM SMD Version SKU: PRT-10208</description>
<gates>
<gate name="G$1" symbol="CONN_05" x="-2.54" y="0"/>
</gates>
<devices>
<device name="" package="1X05">
<connects>
<connect gate="G$1" pin="1" pad="1"/>
<connect gate="G$1" pin="2" pad="2"/>
<connect gate="G$1" pin="3" pad="3"/>
<connect gate="G$1" pin="4" pad="4"/>
<connect gate="G$1" pin="5" pad="5"/>
</connects>
<technologies>
<technology name=""/>
</technologies>
</device>
<device name="1.27MM" package="1X05_1.27MM">
<connects>
<connect gate="G$1" pin="1" pad="1"/>
<connect gate="G$1" pin="2" pad="2"/>
<connect gate="G$1" pin="3" pad="3"/>
<connect gate="G$1" pin="4" pad="4"/>
<connect gate="G$1" pin="5" pad="5"/>
</connects>
<technologies>
<technology name=""/>
</technologies>
</device>
<device name="LOCK" package="1X05_LOCK">
<connects>
<connect gate="G$1" pin="1" pad="1"/>
<connect gate="G$1" pin="2" pad="2"/>
<connect gate="G$1" pin="3" pad="3"/>
<connect gate="G$1" pin="4" pad="4"/>
<connect gate="G$1" pin="5" pad="5"/>
</connects>
<technologies>
<technology name=""/>
</technologies>
</device>
<device name="LOCK_LONGPADS" package="1X05_LOCK_LONGPADS">
<connects>
<connect gate="G$1" pin="1" pad="1"/>
<connect gate="G$1" pin="2" pad="2"/>
<connect gate="G$1" pin="3" pad="3"/>
<connect gate="G$1" pin="4" pad="4"/>
<connect gate="G$1" pin="5" pad="5"/>
</connects>
<technologies>
<technology name=""/>
</technologies>
</device>
<device name="PTH_LONGPADS" package="1X05_LONGPADS">
<connects>
<connect gate="G$1" pin="1" pad="1"/>
<connect gate="G$1" pin="2" pad="2"/>
<connect gate="G$1" pin="3" pad="3"/>
<connect gate="G$1" pin="4" pad="4"/>
<connect gate="G$1" pin="5" pad="5"/>
</connects>
<technologies>
<technology name=""/>
</technologies>
</device>
<device name="SMD" package="1X05_1MM">
<connects>
<connect gate="G$1" pin="1" pad="1"/>
<connect gate="G$1" pin="2" pad="2"/>
<connect gate="G$1" pin="3" pad="3"/>
<connect gate="G$1" pin="4" pad="4"/>
<connect gate="G$1" pin="5" pad="5"/>
</connects>
<technologies>
<technology name="">
<attribute name="PROD_ID" value="CONN-08528" constant="no"/>
<attribute name="SF_ID" value="GPS-08288" constant="no"/>
</technology>
</technologies>
</device>
<device name="SMD2" package="1X05_1MM_RA">
<connects>
<connect gate="G$1" pin="1" pad="1"/>
<connect gate="G$1" pin="2" pad="2"/>
<connect gate="G$1" pin="3" pad="3"/>
<connect gate="G$1" pin="4" pad="4"/>
<connect gate="G$1" pin="5" pad="5"/>
</connects>
<technologies>
<technology name=""/>
</technologies>
</device>
<device name="NO_SILK" package="1X05_NO_SILK">
<connects>
<connect gate="G$1" pin="1" pad="1"/>
<connect gate="G$1" pin="2" pad="2"/>
<connect gate="G$1" pin="3" pad="3"/>
<connect gate="G$1" pin="4" pad="4"/>
<connect gate="G$1" pin="5" pad="5"/>
</connects>
<technologies>
<technology name=""/>
</technologies>
</device>
<device name="JST" package="JST-5-PTH">
<connects>
<connect gate="G$1" pin="1" pad="1"/>
<connect gate="G$1" pin="2" pad="2"/>
<connect gate="G$1" pin="3" pad="3"/>
<connect gate="G$1" pin="4" pad="4"/>
<connect gate="G$1" pin="5" pad="5"/>
</connects>
<technologies>
<technology name="">
<attribute name="SF_ID" value="PRT-09917" constant="no"/>
</technology>
</technologies>
</device>
<device name="JST-VERT" package="JST-5-PTH-VERT">
<connects>
<connect gate="G$1" pin="1" pad="1"/>
<connect gate="G$1" pin="2" pad="2"/>
<connect gate="G$1" pin="3" pad="3"/>
<connect gate="G$1" pin="4" pad="4"/>
<connect gate="G$1" pin="5" pad="5"/>
</connects>
<technologies>
<technology name=""/>
</technologies>
</device>
<device name="SCREW" package="SCREWTERMINAL-3.5MM-5">
<connects>
<connect gate="G$1" pin="1" pad="1"/>
<connect gate="G$1" pin="2" pad="2"/>
<connect gate="G$1" pin="3" pad="3"/>
<connect gate="G$1" pin="4" pad="4"/>
<connect gate="G$1" pin="5" pad="5"/>
</connects>
<technologies>
<technology name="">
<attribute name="PROD_ID" value="Combine 8288+8399" constant="no"/>
</technology>
</technologies>
</device>
<device name="VERT_FEMALE_HEADER" package="1X05_SMD_VERTICAL_COMBO">
<connects>
<connect gate="G$1" pin="1" pad="1"/>
<connect gate="G$1" pin="2" pad="2"/>
<connect gate="G$1" pin="3" pad="3"/>
<connect gate="G$1" pin="4" pad="4"/>
<connect gate="G$1" pin="5" pad="5"/>
</connects>
<technologies>
<technology name="">
<attribute name="PROD_ID" value="CONN-15262" constant="no"/>
</technology>
</technologies>
</device>
</devices>
</deviceset>
<deviceset name="DB9" prefix="J" uservalue="yes">
<description>&lt;h3&gt;DB9 Connector&lt;/h3&gt;
Standard DB9 (D-Sub 9) serial connector. Can be used for CAN bus as well as RS485 and RS232. Footprint production proven.

&lt;p&gt;&lt;/p&gt;
&lt;b&gt;Here is the female version connector we sell at SparkFun:&lt;/b&gt;
&lt;ul&gt;
&lt;li&gt;&lt;a href="https://www.sparkfun.com/products/429"&gt; 9 Pin Female Serial Connector - PCB Mount&lt;/a&gt; (PRT-00429)&lt;/li&gt;
&lt;/ul&gt;

&lt;p&gt;&lt;/p&gt;
&lt;b&gt;This connector has been used on the following SparkFun products:&lt;/b&gt;
&lt;ul&gt;
&lt;li&gt;&lt;a href="https://www.sparkfun.com/products/449"&gt;SparkFun RS232 Shifter - SMD&lt;/a&gt; (PRT-00449)&lt;/li&gt;
&lt;li&gt;&lt;a href="https://www.sparkfun.com/products/8780"&gt; SparkFun RS232 Shifter SMD (No DB9)&lt;/a&gt; (PRT-08780)&lt;/li&gt;
&lt;/ul&gt;</description>
<gates>
<gate name="G$1" symbol="F09G" x="0" y="0"/>
</gates>
<devices>
<device name="FEMALE" package="DB9">
<connects>
<connect gate="G$1" pin="1" pad="1"/>
<connect gate="G$1" pin="2" pad="2"/>
<connect gate="G$1" pin="3" pad="3"/>
<connect gate="G$1" pin="4" pad="4"/>
<connect gate="G$1" pin="5" pad="5"/>
<connect gate="G$1" pin="6" pad="6"/>
<connect gate="G$1" pin="7" pad="7"/>
<connect gate="G$1" pin="8" pad="8"/>
<connect gate="G$1" pin="9" pad="9"/>
</connects>
<technologies>
<technology name="">
<attribute name="PROD_ID" value="CONN-08194" constant="no"/>
</technology>
</technologies>
</device>
<device name="MALE" package="DB9_MALE">
<connects>
<connect gate="G$1" pin="1" pad="1"/>
<connect gate="G$1" pin="2" pad="2"/>
<connect gate="G$1" pin="3" pad="3"/>
<connect gate="G$1" pin="4" pad="4"/>
<connect gate="G$1" pin="5" pad="5"/>
<connect gate="G$1" pin="6" pad="6"/>
<connect gate="G$1" pin="7" pad="7"/>
<connect gate="G$1" pin="8" pad="8"/>
<connect gate="G$1" pin="9" pad="9"/>
</connects>
<technologies>
<technology name="">
<attribute name="PROD_ID" value="CONN-09904" constant="no"/>
</technology>
</technologies>
</device>
</devices>
</deviceset>
</devicesets>
</library>
<library name="SparkFun-Resistors">
<description>&lt;h3&gt;SparkFun Resistors&lt;/h3&gt;
This library contains resistors. Reference designator:R. 
&lt;br&gt;
&lt;br&gt;
We've spent an enormous amount of time creating and checking these footprints and parts, but it is &lt;b&gt; the end user's responsibility&lt;/b&gt; to ensure correctness and suitablity for a given componet or application. 
&lt;br&gt;
&lt;br&gt;If you enjoy using this library, please buy one of our products at &lt;a href=" www.sparkfun.com"&gt;SparkFun.com&lt;/a&gt;.
&lt;br&gt;
&lt;br&gt;
&lt;b&gt;Licensing:&lt;/b&gt; Creative Commons ShareAlike 4.0 International - https://creativecommons.org/licenses/by-sa/4.0/ 
&lt;br&gt;
&lt;br&gt;
You are welcome to use this library for commercial purposes. For attribution, we ask that when you begin to sell your device using our footprint, you email us with a link to the product being sold. We want bragging rights that we helped (in a very small part) to create your 8th world wonder. We would like the opportunity to feature your device on our homepage.</description>
<packages>
<package name="AXIAL-0.3">
<description>&lt;h3&gt;AXIAL-0.3&lt;/h3&gt;
&lt;p&gt;Commonly used for 1/4W through-hole resistors. 0.3" pitch between holes.&lt;/p&gt;</description>
<wire x1="-2.54" y1="0.762" x2="2.54" y2="0.762" width="0.2032" layer="21"/>
<wire x1="2.54" y1="0.762" x2="2.54" y2="0" width="0.2032" layer="21"/>
<wire x1="2.54" y1="0" x2="2.54" y2="-0.762" width="0.2032" layer="21"/>
<wire x1="2.54" y1="-0.762" x2="-2.54" y2="-0.762" width="0.2032" layer="21"/>
<wire x1="-2.54" y1="-0.762" x2="-2.54" y2="0" width="0.2032" layer="21"/>
<wire x1="-2.54" y1="0" x2="-2.54" y2="0.762" width="0.2032" layer="21"/>
<wire x1="2.54" y1="0" x2="2.794" y2="0" width="0.2032" layer="21"/>
<wire x1="-2.54" y1="0" x2="-2.794" y2="0" width="0.2032" layer="21"/>
<pad name="P$1" x="-3.81" y="0" drill="0.9" diameter="1.8796"/>
<pad name="P$2" x="3.81" y="0" drill="0.9" diameter="1.8796"/>
<text x="0" y="1.016" size="0.6096" layer="25" font="vector" ratio="20" align="bottom-center">&gt;Name</text>
<text x="0" y="-1.016" size="0.6096" layer="27" font="vector" ratio="20" align="top-center">&gt;Value</text>
</package>
<package name="AXIAL-0.3-KIT">
<description>&lt;h3&gt;AXIAL-0.3-KIT&lt;/h3&gt;
&lt;p&gt;Commonly used for 1/4W through-hole resistors. 0.3" pitch between holes.&lt;/p&gt;
&lt;p&gt;&lt;b&gt;Warning:&lt;/b&gt; This is the KIT version of the AXIAL-0.3 package. This package has a smaller diameter top stop mask, which doesn't cover the diameter of the pad. This means only the bottom side of the pads' copper will be exposed. You'll only be able to solder to the bottom side.&lt;/p&gt;</description>
<wire x1="-2.54" y1="1.27" x2="2.54" y2="1.27" width="0.254" layer="21"/>
<wire x1="2.54" y1="1.27" x2="2.54" y2="0" width="0.254" layer="21"/>
<wire x1="2.54" y1="0" x2="2.54" y2="-1.27" width="0.254" layer="21"/>
<wire x1="2.54" y1="-1.27" x2="-2.54" y2="-1.27" width="0.254" layer="21"/>
<wire x1="-2.54" y1="-1.27" x2="-2.54" y2="0" width="0.254" layer="21"/>
<wire x1="-2.54" y1="0" x2="-2.54" y2="1.27" width="0.254" layer="21"/>
<wire x1="2.54" y1="0" x2="2.794" y2="0" width="0.254" layer="21"/>
<wire x1="-2.54" y1="0" x2="-2.794" y2="0" width="0.254" layer="21"/>
<pad name="P$1" x="-3.81" y="0" drill="1.016" diameter="2.032" stop="no"/>
<pad name="P$2" x="3.81" y="0" drill="1.016" diameter="2.032" stop="no"/>
<text x="0" y="1.524" size="0.6096" layer="25" font="vector" ratio="20" align="bottom-center">&gt;NAME</text>
<text x="0" y="-1.524" size="0.6096" layer="27" font="vector" ratio="20" align="top-center">&gt;VALUE</text>
<polygon width="0.127" layer="30">
<vertex x="3.8201" y="-0.9449" curve="-90"/>
<vertex x="2.8652" y="-0.0152" curve="-90.011749"/>
<vertex x="3.8176" y="0.9602" curve="-90"/>
<vertex x="4.7676" y="-0.0178" curve="-90.024193"/>
</polygon>
<polygon width="0.127" layer="29">
<vertex x="3.8176" y="-0.4369" curve="-90.012891"/>
<vertex x="3.3731" y="-0.0127" curve="-90"/>
<vertex x="3.8176" y="0.4546" curve="-90"/>
<vertex x="4.2595" y="-0.0025" curve="-90.012967"/>
</polygon>
<polygon width="0.127" layer="30">
<vertex x="-3.8075" y="-0.9525" curve="-90"/>
<vertex x="-4.7624" y="-0.0228" curve="-90.011749"/>
<vertex x="-3.81" y="0.9526" curve="-90"/>
<vertex x="-2.86" y="-0.0254" curve="-90.024193"/>
</polygon>
<polygon width="0.127" layer="29">
<vertex x="-3.81" y="-0.4445" curve="-90.012891"/>
<vertex x="-4.2545" y="-0.0203" curve="-90"/>
<vertex x="-3.81" y="0.447" curve="-90"/>
<vertex x="-3.3681" y="-0.0101" curve="-90.012967"/>
</polygon>
</package>
<package name="0402">
<description>&lt;p&gt;&lt;b&gt;Generic 1005 (0402) package&lt;/b&gt;&lt;/p&gt;
&lt;p&gt;0.2mm courtyard excess rounded to nearest 0.05mm.&lt;/p&gt;</description>
<wire x1="-0.2704" y1="0.2286" x2="0.2704" y2="0.2286" width="0.1524" layer="51"/>
<wire x1="0.2704" y1="-0.2286" x2="-0.2704" y2="-0.2286" width="0.1524" layer="51"/>
<wire x1="-1.2" y1="0.65" x2="1.2" y2="0.65" width="0.0508" layer="39"/>
<wire x1="1.2" y1="0.65" x2="1.2" y2="-0.65" width="0.0508" layer="39"/>
<wire x1="1.2" y1="-0.65" x2="-1.2" y2="-0.65" width="0.0508" layer="39"/>
<wire x1="-1.2" y1="-0.65" x2="-1.2" y2="0.65" width="0.0508" layer="39"/>
<smd name="1" x="-0.58" y="0" dx="0.85" dy="0.9" layer="1"/>
<smd name="2" x="0.58" y="0" dx="0.85" dy="0.9" layer="1"/>
<text x="0" y="0.762" size="0.6096" layer="25" font="vector" ratio="20" align="bottom-center">&gt;NAME</text>
<text x="0" y="-0.762" size="0.6096" layer="27" font="vector" ratio="20" align="top-center">&gt;VALUE</text>
<rectangle x1="-0.554" y1="-0.3048" x2="-0.254" y2="0.3048" layer="51"/>
<rectangle x1="0.2588" y1="-0.3048" x2="0.5588" y2="0.3048" layer="51"/>
<rectangle x1="-0.1999" y1="-0.3" x2="0.1999" y2="0.3" layer="35"/>
</package>
<package name="0603" urn="urn:adsk.eagle:footprint:39615/1" library_version="1">
<description>&lt;p&gt;&lt;b&gt;Generic 1608 (0603) package&lt;/b&gt;&lt;/p&gt;
&lt;p&gt;0.2mm courtyard excess rounded to nearest 0.05mm.&lt;/p&gt;</description>
<wire x1="-1.6" y1="0.7" x2="1.6" y2="0.7" width="0.0508" layer="39"/>
<wire x1="1.6" y1="0.7" x2="1.6" y2="-0.7" width="0.0508" layer="39"/>
<wire x1="1.6" y1="-0.7" x2="-1.6" y2="-0.7" width="0.0508" layer="39"/>
<wire x1="-1.6" y1="-0.7" x2="-1.6" y2="0.7" width="0.0508" layer="39"/>
<wire x1="-0.356" y1="0.432" x2="0.356" y2="0.432" width="0.1016" layer="51"/>
<wire x1="-0.356" y1="-0.419" x2="0.356" y2="-0.419" width="0.1016" layer="51"/>
<smd name="1" x="-0.85" y="0" dx="1.1" dy="1" layer="1"/>
<smd name="2" x="0.85" y="0" dx="1.1" dy="1" layer="1"/>
<text x="0" y="0.762" size="0.6096" layer="25" font="vector" ratio="20" align="bottom-center">&gt;NAME</text>
<text x="0" y="-0.762" size="0.6096" layer="27" font="vector" ratio="20" align="top-center">&gt;VALUE</text>
<rectangle x1="-0.8382" y1="-0.4699" x2="-0.3381" y2="0.4801" layer="51"/>
<rectangle x1="0.3302" y1="-0.4699" x2="0.8303" y2="0.4801" layer="51"/>
<rectangle x1="-0.1999" y1="-0.3" x2="0.1999" y2="0.3" layer="35"/>
</package>
<package name="0805">
<description>&lt;p&gt;&lt;b&gt;Generic 2012 (0805) package&lt;/b&gt;&lt;/p&gt;
&lt;p&gt;0.2mm courtyard excess rounded to nearest 0.05mm.&lt;/p&gt;</description>
<smd name="1" x="-0.9" y="0" dx="0.8" dy="1.2" layer="1"/>
<smd name="2" x="0.9" y="0" dx="0.8" dy="1.2" layer="1"/>
<text x="0" y="0.889" size="0.6096" layer="25" font="vector" ratio="20" align="bottom-center">&gt;NAME</text>
<text x="0" y="-0.889" size="0.6096" layer="27" font="vector" ratio="20" align="top-center">&gt;VALUE</text>
<wire x1="-1.5" y1="0.8" x2="1.5" y2="0.8" width="0.0508" layer="39"/>
<wire x1="1.5" y1="0.8" x2="1.5" y2="-0.8" width="0.0508" layer="39"/>
<wire x1="1.5" y1="-0.8" x2="-1.5" y2="-0.8" width="0.0508" layer="39"/>
<wire x1="-1.5" y1="-0.8" x2="-1.5" y2="0.8" width="0.0508" layer="39"/>
</package>
<package name="1206">
<description>&lt;p&gt;&lt;b&gt;Generic 3216 (1206) package&lt;/b&gt;&lt;/p&gt;
&lt;p&gt;0.2mm courtyard excess rounded to nearest 0.05mm.&lt;/p&gt;</description>
<wire x1="-2.4" y1="1.1" x2="2.4" y2="1.1" width="0.0508" layer="39"/>
<wire x1="2.4" y1="-1.1" x2="-2.4" y2="-1.1" width="0.0508" layer="39"/>
<wire x1="-2.4" y1="-1.1" x2="-2.4" y2="1.1" width="0.0508" layer="39"/>
<wire x1="2.4" y1="1.1" x2="2.4" y2="-1.1" width="0.0508" layer="39"/>
<wire x1="-0.965" y1="0.787" x2="0.965" y2="0.787" width="0.1016" layer="51"/>
<wire x1="-0.965" y1="-0.787" x2="0.965" y2="-0.787" width="0.1016" layer="51"/>
<smd name="1" x="-1.4" y="0" dx="1.6" dy="1.8" layer="1"/>
<smd name="2" x="1.4" y="0" dx="1.6" dy="1.8" layer="1"/>
<text x="0" y="1.143" size="0.6096" layer="25" font="vector" ratio="20" align="bottom-center">&gt;NAME</text>
<text x="0" y="-1.143" size="0.6096" layer="27" font="vector" ratio="20" align="top-center">&gt;VALUE</text>
<rectangle x1="-1.7018" y1="-0.8509" x2="-0.9517" y2="0.8491" layer="51"/>
<rectangle x1="0.9517" y1="-0.8491" x2="1.7018" y2="0.8509" layer="51"/>
<rectangle x1="-0.1999" y1="-0.4001" x2="0.1999" y2="0.4001" layer="35"/>
</package>
<package name="0402-TIGHT">
<smd name="1" x="-0.5" y="0" dx="0.6" dy="0.6" layer="1"/>
<smd name="2" x="0.5" y="0" dx="0.6" dy="0.6" layer="1"/>
<text x="0" y="0.562" size="0.6096" layer="25" font="vector" ratio="20" align="bottom-center">&gt;NAME</text>
<text x="0" y="-0.562" size="0.6096" layer="27" font="vector" ratio="20" align="top-center">&gt;VALUE</text>
<wire x1="-0.5" y1="-0.25" x2="-0.5" y2="0.25" width="0.002540625" layer="51"/>
<wire x1="-0.5" y1="0.25" x2="0.5" y2="0.25" width="0.002540625" layer="51"/>
<wire x1="0.5" y1="0.25" x2="0.5" y2="-0.25" width="0.002540625" layer="51"/>
<wire x1="0.5" y1="-0.25" x2="-0.5" y2="-0.25" width="0.002540625" layer="51"/>
<rectangle x1="-0.5" y1="-0.25" x2="-0.3" y2="0.25" layer="51"/>
<rectangle x1="0.3" y1="-0.25" x2="0.5" y2="0.25" layer="51" rot="R180"/>
<wire x1="0.9262" y1="0.4262" x2="-0.9262" y2="0.4262" width="0.05" layer="39"/>
<wire x1="-0.9262" y1="0.4262" x2="-0.9262" y2="-0.4262" width="0.05" layer="39"/>
<wire x1="-0.9262" y1="-0.4262" x2="0.9262" y2="-0.4262" width="0.05" layer="39"/>
<wire x1="0.9262" y1="-0.4262" x2="0.9262" y2="0.4262" width="0.05" layer="39"/>
</package>
</packages>
<symbols>
<symbol name="RESISTOR">
<wire x1="-2.54" y1="0" x2="-2.159" y2="1.016" width="0.1524" layer="94"/>
<wire x1="-2.159" y1="1.016" x2="-1.524" y2="-1.016" width="0.1524" layer="94"/>
<wire x1="-1.524" y1="-1.016" x2="-0.889" y2="1.016" width="0.1524" layer="94"/>
<wire x1="-0.889" y1="1.016" x2="-0.254" y2="-1.016" width="0.1524" layer="94"/>
<wire x1="-0.254" y1="-1.016" x2="0.381" y2="1.016" width="0.1524" layer="94"/>
<wire x1="0.381" y1="1.016" x2="1.016" y2="-1.016" width="0.1524" layer="94"/>
<wire x1="1.016" y1="-1.016" x2="1.651" y2="1.016" width="0.1524" layer="94"/>
<wire x1="1.651" y1="1.016" x2="2.286" y2="-1.016" width="0.1524" layer="94"/>
<wire x1="2.286" y1="-1.016" x2="2.54" y2="0" width="0.1524" layer="94"/>
<text x="0" y="1.524" size="1.778" layer="95" font="vector" align="bottom-center">&gt;NAME</text>
<text x="0" y="-1.524" size="1.778" layer="96" font="vector" align="top-center">&gt;VALUE</text>
<pin name="2" x="5.08" y="0" visible="off" length="short" direction="pas" swaplevel="1" rot="R180"/>
<pin name="1" x="-5.08" y="0" visible="off" length="short" direction="pas" swaplevel="1"/>
</symbol>
</symbols>
<devicesets>
<deviceset name="RESISTOR" prefix="R">
<description>Generic Resistor Package</description>
<gates>
<gate name="G$1" symbol="RESISTOR" x="0" y="0"/>
</gates>
<devices>
<device name="AXIAL-0.3" package="AXIAL-0.3">
<connects>
<connect gate="G$1" pin="1" pad="P$1"/>
<connect gate="G$1" pin="2" pad="P$2"/>
</connects>
<technologies>
<technology name="">
<attribute name="PROD_ID" value=" " constant="no"/>
<attribute name="VALUE" value=" " constant="no"/>
</technology>
</technologies>
</device>
<device name="AXIAL-0.3-KIT" package="AXIAL-0.3-KIT">
<connects>
<connect gate="G$1" pin="1" pad="P$1"/>
<connect gate="G$1" pin="2" pad="P$2"/>
</connects>
<technologies>
<technology name="">
<attribute name="PROD_ID" value=" " constant="no"/>
<attribute name="VALUE" value=" " constant="no"/>
</technology>
</technologies>
</device>
<device name="0402" package="0402">
<connects>
<connect gate="G$1" pin="1" pad="1"/>
<connect gate="G$1" pin="2" pad="2"/>
</connects>
<technologies>
<technology name="">
<attribute name="PROD_ID" value=" " constant="no"/>
<attribute name="VALUE" value=" " constant="no"/>
</technology>
</technologies>
</device>
<device name="0603" package="0603">
<connects>
<connect gate="G$1" pin="1" pad="1"/>
<connect gate="G$1" pin="2" pad="2"/>
</connects>
<technologies>
<technology name="">
<attribute name="PROD_ID" value=" " constant="no"/>
<attribute name="VALUE" value=" " constant="no"/>
</technology>
</technologies>
</device>
<device name="0805" package="0805">
<connects>
<connect gate="G$1" pin="1" pad="1"/>
<connect gate="G$1" pin="2" pad="2"/>
</connects>
<technologies>
<technology name="">
<attribute name="PROD_ID" value=" " constant="no"/>
<attribute name="VALUE" value=" " constant="no"/>
</technology>
</technologies>
</device>
<device name="1206" package="1206">
<connects>
<connect gate="G$1" pin="1" pad="1"/>
<connect gate="G$1" pin="2" pad="2"/>
</connects>
<technologies>
<technology name="">
<attribute name="PROD_ID" value=" " constant="no"/>
<attribute name="VALUE" value=" " constant="no"/>
</technology>
</technologies>
</device>
<device name="0402T" package="0402-TIGHT">
<connects>
<connect gate="G$1" pin="1" pad="1"/>
<connect gate="G$1" pin="2" pad="2"/>
</connects>
<technologies>
<technology name=""/>
</technologies>
</device>
</devices>
</deviceset>
</devicesets>
</library>
</libraries>
<attributes>
</attributes>
<variantdefs>
</variantdefs>
<classes>
<class number="0" name="default" width="0" drill="0">
</class>
</classes>
<parts>
<part name="CANH" library="SparkFun-Connectors" deviceset="CONN_05" device=""/>
<part name="CANL" library="SparkFun-Connectors" deviceset="CONN_05" device=""/>
<part name="R1" library="SparkFun-Resistors" deviceset="RESISTOR" device="AXIAL-0.3" value=" "/>
<part name="R2" library="SparkFun-Resistors" deviceset="RESISTOR" device="AXIAL-0.3" value=" "/>
<part name="DB9" library="SparkFun-Connectors" deviceset="DB9" device="FEMALE"/>
</parts>
<sheets>
<sheet>
<plain>
</plain>
<instances>
<instance part="CANH" gate="G$1" x="66.04" y="43.18" smashed="yes" rot="R180">
<attribute name="VALUE" x="68.58" y="53.086" size="1.778" layer="96" font="vector" rot="R180"/>
<attribute name="NAME" x="68.58" y="35.052" size="1.778" layer="95" font="vector" rot="R180"/>
</instance>
<instance part="CANL" gate="G$1" x="25.4" y="43.18" smashed="yes">
<attribute name="VALUE" x="22.86" y="33.274" size="1.778" layer="96" font="vector"/>
<attribute name="NAME" x="22.86" y="51.308" size="1.778" layer="95" font="vector"/>
</instance>
<instance part="R1" gate="G$1" x="45.72" y="60.96" smashed="yes">
<attribute name="NAME" x="45.72" y="62.484" size="1.778" layer="95" font="vector" align="bottom-center"/>
<attribute name="VALUE" x="45.72" y="59.436" size="1.778" layer="96" font="vector" align="top-center"/>
</instance>
<instance part="R2" gate="G$1" x="45.72" y="22.86" smashed="yes">
<attribute name="NAME" x="45.72" y="24.384" size="1.778" layer="95" font="vector" align="bottom-center"/>
<attribute name="VALUE" x="45.72" y="21.336" size="1.778" layer="96" font="vector" align="top-center"/>
</instance>
<instance part="DB9" gate="G$1" x="45.72" y="0" smashed="yes">
<attribute name="VALUE" x="41.91" y="-8.382" size="1.778" layer="96" font="vector" align="top-left"/>
<attribute name="NAME" x="41.91" y="8.636" size="1.778" layer="95" font="vector"/>
</instance>
</instances>
<busses>
</busses>
<nets>
<net name="CANL" class="0">
<segment>
<pinref part="R1" gate="G$1" pin="1"/>
<wire x1="40.64" y1="60.96" x2="38.1" y2="60.96" width="0.1524" layer="91"/>
<pinref part="R2" gate="G$1" pin="1"/>
<wire x1="38.1" y1="60.96" x2="38.1" y2="48.26" width="0.1524" layer="91"/>
<wire x1="38.1" y1="48.26" x2="38.1" y2="45.72" width="0.1524" layer="91"/>
<wire x1="38.1" y1="45.72" x2="38.1" y2="43.18" width="0.1524" layer="91"/>
<wire x1="38.1" y1="43.18" x2="38.1" y2="40.64" width="0.1524" layer="91"/>
<wire x1="38.1" y1="40.64" x2="38.1" y2="38.1" width="0.1524" layer="91"/>
<wire x1="38.1" y1="38.1" x2="38.1" y2="35.56" width="0.1524" layer="91"/>
<wire x1="38.1" y1="35.56" x2="38.1" y2="22.86" width="0.1524" layer="91"/>
<wire x1="38.1" y1="22.86" x2="40.64" y2="22.86" width="0.1524" layer="91"/>
<pinref part="CANL" gate="G$1" pin="5"/>
<wire x1="33.02" y1="48.26" x2="38.1" y2="48.26" width="0.1524" layer="91"/>
<junction x="38.1" y="48.26"/>
<pinref part="CANL" gate="G$1" pin="4"/>
<wire x1="33.02" y1="45.72" x2="38.1" y2="45.72" width="0.1524" layer="91"/>
<junction x="38.1" y="45.72"/>
<pinref part="CANL" gate="G$1" pin="3"/>
<wire x1="33.02" y1="43.18" x2="38.1" y2="43.18" width="0.1524" layer="91"/>
<junction x="38.1" y="43.18"/>
<pinref part="CANL" gate="G$1" pin="2"/>
<wire x1="33.02" y1="40.64" x2="38.1" y2="40.64" width="0.1524" layer="91"/>
<junction x="38.1" y="40.64"/>
<pinref part="CANL" gate="G$1" pin="1"/>
<wire x1="33.02" y1="38.1" x2="38.1" y2="38.1" width="0.1524" layer="91"/>
<junction x="38.1" y="38.1"/>
<pinref part="DB9" gate="G$1" pin="2"/>
<wire x1="38.1" y1="2.54" x2="33.02" y2="2.54" width="0.1524" layer="91"/>
<wire x1="33.02" y1="2.54" x2="33.02" y2="35.56" width="0.1524" layer="91"/>
<wire x1="33.02" y1="35.56" x2="38.1" y2="35.56" width="0.1524" layer="91"/>
<junction x="38.1" y="35.56"/>
<label x="38.1" y="58.42" size="1.778" layer="95"/>
</segment>
</net>
<net name="CANH" class="0">
<segment>
<pinref part="R1" gate="G$1" pin="2"/>
<wire x1="50.8" y1="60.96" x2="53.34" y2="60.96" width="0.1524" layer="91"/>
<pinref part="R2" gate="G$1" pin="2"/>
<wire x1="53.34" y1="60.96" x2="53.34" y2="48.26" width="0.1524" layer="91"/>
<wire x1="53.34" y1="48.26" x2="53.34" y2="45.72" width="0.1524" layer="91"/>
<wire x1="53.34" y1="45.72" x2="53.34" y2="43.18" width="0.1524" layer="91"/>
<wire x1="53.34" y1="43.18" x2="53.34" y2="40.64" width="0.1524" layer="91"/>
<wire x1="53.34" y1="40.64" x2="53.34" y2="38.1" width="0.1524" layer="91"/>
<wire x1="53.34" y1="38.1" x2="53.34" y2="35.56" width="0.1524" layer="91"/>
<wire x1="53.34" y1="35.56" x2="53.34" y2="22.86" width="0.1524" layer="91"/>
<wire x1="53.34" y1="22.86" x2="50.8" y2="22.86" width="0.1524" layer="91"/>
<pinref part="CANH" gate="G$1" pin="1"/>
<wire x1="58.42" y1="48.26" x2="53.34" y2="48.26" width="0.1524" layer="91"/>
<junction x="53.34" y="48.26"/>
<pinref part="CANH" gate="G$1" pin="2"/>
<wire x1="58.42" y1="45.72" x2="53.34" y2="45.72" width="0.1524" layer="91"/>
<junction x="53.34" y="45.72"/>
<pinref part="CANH" gate="G$1" pin="3"/>
<wire x1="58.42" y1="43.18" x2="53.34" y2="43.18" width="0.1524" layer="91"/>
<junction x="53.34" y="43.18"/>
<pinref part="CANH" gate="G$1" pin="4"/>
<wire x1="58.42" y1="40.64" x2="53.34" y2="40.64" width="0.1524" layer="91"/>
<junction x="53.34" y="40.64"/>
<pinref part="CANH" gate="G$1" pin="5"/>
<wire x1="58.42" y1="38.1" x2="53.34" y2="38.1" width="0.1524" layer="91"/>
<junction x="53.34" y="38.1"/>
<pinref part="DB9" gate="G$1" pin="7"/>
<wire x1="53.34" y1="0" x2="58.42" y2="0" width="0.1524" layer="91"/>
<wire x1="58.42" y1="0" x2="58.42" y2="35.56" width="0.1524" layer="91"/>
<wire x1="58.42" y1="35.56" x2="53.34" y2="35.56" width="0.1524" layer="91"/>
<junction x="53.34" y="35.56"/>
<label x="53.34" y="58.42" size="1.778" layer="95"/>
</segment>
</net>
</nets>
</sheet>
</sheets>
</schematic>
</drawing>
<compatibility>
<note version="8.3" severity="warning">
Since Version 8.3, EAGLE supports URNs for individual library
assets (packages, symbols, and devices). The URNs of those assets
will not be understood (or retained) with this version.
</note>
</compatibility>
</eagle>
